﻿


EVENT   1
 PAGE   1
  281(1)
  250(bytes(0x04,0x08,0x6f,0x3a,0x0c,0x52,0x50,0x47,0x3a,0x3a,0x53,0x45,0x08,0x3a,0x0a,0x40,0x6e,0x61,0x6d,0x65,0x49,0x22,0x09,0x4d,0x6f,0x76,0x65,0x06,0x3a,0x06,0x45,0x54,0x3a,0x0b,0x40,0x70,0x69,0x74,0x63,0x68,0x69,0x69,0x3a,0x0c,0x40,0x76,0x6f,0x6c,0x75,0x6d,0x65,0x69,0x55))
  TeleportPlayer(0,51,10,16,0,0)
  0()



EVENT   2
 PAGE   1
  281(1)
  250(bytes(0x04,0x08,0x6f,0x3a,0x0c,0x52,0x50,0x47,0x3a,0x3a,0x53,0x45,0x08,0x3a,0x0a,0x40,0x6e,0x61,0x6d,0x65,0x49,0x22,0x09,0x4d,0x6f,0x76,0x65,0x06,0x3a,0x06,0x45,0x54,0x3a,0x0b,0x40,0x70,0x69,0x74,0x63,0x68,0x69,0x69,0x3a,0x0c,0x40,0x76,0x6f,0x6c,0x75,0x6d,0x65,0x69,0x55))
  TeleportPlayer(0,51,20,11,0,0)
  0()



EVENT   4
 PAGE   1
  281(1)
  250(bytes(0x04,0x08,0x6f,0x3a,0x0c,0x52,0x50,0x47,0x3a,0x3a,0x53,0x45,0x08,0x3a,0x0a,0x40,0x6e,0x61,0x6d,0x65,0x49,0x22,0x09,0x4d,0x6f,0x76,0x65,0x06,0x3a,0x06,0x45,0x54,0x3a,0x0b,0x40,0x70,0x69,0x74,0x63,0x68,0x69,0x69,0x3a,0x0c,0x40,0x76,0x6f,0x6c,0x75,0x6d,0x65,0x69,0x55))
  TeleportPlayer(0,51,25,22,0,0)
  0()



EVENT   5
 PAGE   1
  281(1)
  250(bytes(0x04,0x08,0x6f,0x3a,0x0c,0x52,0x50,0x47,0x3a,0x3a,0x53,0x45,0x08,0x3a,0x0a,0x40,0x6e,0x61,0x6d,0x65,0x49,0x22,0x09,0x4d,0x6f,0x76,0x65,0x06,0x3a,0x06,0x45,0x54,0x3a,0x0b,0x40,0x70,0x69,0x74,0x63,0x68,0x69,0x69,0x3a,0x0c,0x40,0x76,0x6f,0x6c,0x75,0x6d,0x65,0x69,0x55))
  TeleportPlayer(0,51,44,24,0,0)
  0()



EVENT   6
 PAGE   1
  ShowMessageFace("",0,0,2,1)
  ShowMessage("\\n<Panties Manager>Welcome, would you like to purchase some weapons?")
  Shop(1,190,0,0,false)
  605(1,402,0,0)
  605(1,441,0,0)
  605(1,589,0,0)
  605(1,699,0,0)
  605(1,821,0,0)
  605(1,919,0,0)
  0()



EVENT   7
 PAGE   1
  ShowMessageFace("",0,0,2,1)
  ShowMessage("\\n<Panties Salesman>Welcome, would you like to purchase some armor?")
  Shop(2,3,0,0,false)
  605(2,19,0,0)
  605(2,53,0,0)
  605(2,104,0,0)
  605(2,163,0,0)
  605(2,177,0,0)
  605(2,272,0,0)
  605(2,1145,0,0)
  605(2,1171,0,0)
  0()



EVENT   8
 PAGE   1
  ShowMessageFace("",0,0,2,1)
  ShowMessage("\\n<Panties Manager>Welcome, would you like to purchase some items?")
  Shop(0,1,0,0,false)
  605(0,11,0,0)
  605(0,13,0,0)
  605(0,14,0,0)
  605(0,17,0,0)
  605(0,23,0,0)
  605(0,35,0,0)
  0()



EVENT   11
 PAGE   1
  ShowMessageFace("",0,0,2,1)
  ShowMessage("\\n<Penis>Hello, I am penis.")
  If(0,6,0)
   ShowMessageFace("sonia_fc1",5,0,2,2)
   ShowMessage("\\n<Sonya>Is anyone in this town NOT a pervert!?")
   ShowMessageFace("",0,0,2,3)
   ShowMessage("\\n<Penis>Wow, how rude! That's my real name. Do you know how hard it is to live with a name like this?")
   ShowMessageFace("",0,0,2,4)
   ShowMessage("\\n<Penis>A man named Penis can't live a normal life in any other town. This is the only place that will accept me!")
   ShowMessageFace("sonia_fc2",3,0,2,5)
   ShowMessage("\\n<Sonya>I, I'm so sorry...")
   ShowMessageFace("",0,0,2,6)
   ShowMessage("\\n<Penis>That said... It turns me on so much to hear the embarrassment in their voices when girls say my name.")
   ShowMessageFace("sonia_fc2",5,0,2,7)
   ShowMessage("\\n<Sonya>I knew you were a pervert!")
   0()
  Else()
   ShowMessageFace("",0,0,2,8)
   ShowMessage("\\n<Penis>Yes, this really is my name. I'm not trying to screw with you.")
   0()
  EndIf()
  0()



EVENT   12
 PAGE   1
  ShowMessageFace("",0,0,2,1)
  ShowMessage("\\n<Mister Condom>My name is Mister Condom. Young man, do you always remember to wear a condom?")
  ShowMessageFace("",0,0,2,2)
  ShowMessage("\\n<Mister Condom>Women alone bear the risk of pregnancy when you have sex without contraception. Only by wearing a condom can men take their fair share of responsibility.")
  If(0,6,0)
   ShowMessageFace("sonia_fc3",2,0,2,3)
   ShowMessage("\\n<Sonya>What a perv-- wait, that was actually educational!")
   0()
  EndIf()
  0()



EVENT   9
 PAGE   1
  If(8,151)
   ShowMessageFace("",0,0,2,1)
   ShowMessage("\\n<Blacksmith>Welcome, what can I do for you? I can forge iron equipment for you out of that lump of iron you've got.")
   ShowChoices(strings("Synthesize","Buy Iron Equipment"),0)
   IfPlayerPicksChoice(0,null)
    355("call_synthesize(4)")
    0()
   IfPlayerPicksChoice(1,null)
    ShowMessageFace("",0,0,2,2)
    ShowMessage("\\n<Blacksmith>The equipment is a bit expensive, but you don't have to worry about ever running out of iron to forge more of it.")
    Shop(1,3,0,0,false)
    605(1,51,0,0)
    605(1,145,0,0)
    605(1,192,0,0)
    605(1,292,0,0)
    605(1,335,0,0)
    605(1,364,0,0)
    605(1,403,0,0)
    605(1,443,0,0)
    605(1,473,0,0)
    605(1,511,0,0)
    605(1,550,0,0)
    605(1,591,0,0)
    605(1,623,0,0)
    605(1,660,0,0)
    605(1,700,0,0)
    605(1,726,0,0)
    605(1,755,0,0)
    605(1,775,0,0)
    605(1,797,0,0)
    605(1,822,0,0)
    605(1,844,0,0)
    605(2,31,0,0)
    605(2,55,0,0)
    605(2,105,0,0)
    605(2,194,0,0)
    605(2,235,0,0)
    605(2,282,0,0)
    0()
   404()
   0()
  Else()
   ShowMessageFace("",0,0,2,3)
   ShowMessage("\\n<Blacksmith>This town was originally an ironworks. With some high quality iron ore, I could make iron equipment for you...")
   355("call_synthesize(4)")
   0()
  EndIf()
  0()



EVENT   13
 PAGE   1
  ShowMessageFace("",0,0,2,1)
  ShowMessage("\\n<Panties Man>It's 10G a night. Will you be staying with us?")
  ShowChoices(strings("Yes","No"),2)
  IfPlayerPicksChoice(0,null)
   If(7,10,0)
    125(1,0,10)
    221()
    249(bytes(0x04,0x08,0x6f,0x3a,0x0c,0x52,0x50,0x47,0x3a,0x3a,0x4d,0x45,0x08,0x3a,0x0a,0x40,0x6e,0x61,0x6d,0x65,0x49,0x22,0x08,0x49,0x6e,0x6e,0x06,0x3a,0x06,0x45,0x54,0x3a,0x0b,0x40,0x70,0x69,0x74,0x63,0x68,0x69,0x69,0x3a,0x0c,0x40,0x76,0x6f,0x6c,0x75,0x6d,0x65,0x69,0x69))
    Wait(150)
    314(0,0)
    222()
    0()
   Else()
    ShowMessageFace("",0,0,2,2)
    ShowMessage("\\n<Panties Man>You're short on cash.")
    0()
   EndIf()
   0()
  IfPlayerPicksChoice(1,null)
   0()
  404()
  0()



EVENT   15
 PAGE   1
  // condition: variable 1009 >= 1
  ShowMessageFace("",0,0,2,1)
  ShowMessage("\\n<Panties Man>Miss Rabbit is right on the other side of this wall... Haaa, haaa, haaa... Miss Rabbit...")
  355("actor_label_jump")
  EndEventProcessing()
  DefineLabel("54")
  ShowMessageFace("bunnyslime_fc1",0,0,2,2)
  ShowMessage("\\n<Bunni>Hop hop! There's a rabbit right here!")
  EndEventProcessing()
  DefineLabel("74")
  ShowMessageFace("usagi_fc1",2,0,2,3)
  ShowMessage("\\n<Barnny>Sigh, not this guy again...")
  EndEventProcessing()
  DefineLabel("75")
  ShowMessageFace("hituzi_fc1",3,0,2,4)
  ShowMessage("\\n<Mary>Rabbits are such annoying naggers though...")
  EndEventProcessing()
  0()



EVENT   17
 PAGE   1
  ShowMessageFace("",0,0,2,1)
  ShowMessage("\\n<Perverted Old Man>The Panty Sensei has a marvelous collection. I can't help but admire it.")
  If(0,6,0)
   ShowMessageFace("",0,0,2,2)
   ShowMessage("\\n<Perverted Old Man>By the way, young lady, would you be willing to sell the panties you're wearing for 200G?")
   If(0,2043,1)
    ShowMessageFace("sonia_fc3",2,0,2,3)
    ShowMessage("\\n<Sonya>Excuse me?!")
    ShowChoices(strings("Sell them for 200G","Refuse"),2)
    IfPlayerPicksChoice(0,null)
     ChangeSwitch(2043,2043,0)
     ShowMessageFace("ruka_fc1",0,0,2,4)
     ShowMessage("\\n<Luka>If you please, Sonya...")
     ShowMessageFace("sonia_fc1",7,0,2,5)
     ShowMessage("\\n<Sonya>I can't believe I'm doing this.")
     125(0,0,200)
     ShowMessageFace("",0,0,2,6)
     ShowMessage("Sonya takes off her panties and hands them to the Perverted Old man! You receive 200G!")
     ShowMessageFace("",0,0,2,7)
     ShowMessage("\\n<Perverted Old Man>Woo hoo! It actually worked! You're such a nice guy, and wow these are some top-notch panties!")
     ShowMessageFace("",0,0,2,8)
     ShowMessage("\\n<Perverted Old Man>Sensei, what's the proper protocol? Sniff them? Wear them on my head? Eat them?")
     If(0,2121,1)
      ShowMessageFace("",0,0,2,9)
      ShowMessage("\\n<Panty Sensei>Enjoy their fragrance for awhile before putting them on your head. Only then should you eat them.")
      ShowMessageFace("sonia_fc3",0,0,2,10)
      ShowMessage("\\n<Sonya>It sure would be nice for a meteor to fall from the sky and wipe this entire town off the map.")
      0()
     Else()
      ShowMessageFace("",0,0,2,11)
      ShowMessage("\\n<Perverted Old Man>Oh, I forgot he isn't here anymore.")
      ShowMessageFace("sonia_fc3",0,0,2,12)
      ShowMessage("\\n<Sonya>......")
      0()
     EndIf()
     EndEventProcessing()
     0()
    IfPlayerPicksChoice(1,null)
     ShowMessageFace("",0,0,2,13)
     ShowMessage("\\n<Perverted Old Man>Oh, that's a shame...")
     EndEventProcessing()
     0()
    404()
    0()
   Else()
    ShowMessageFace("sonia_fc2",5,0,2,14)
    ShowMessage("\\n<Sonya>Once was too many times!")
    EndEventProcessing()
    0()
   EndIf()
   0()
  EndIf()
  0()



EVENT   18
 PAGE   1
  ShowMessageFace("",0,0,2,1)
  ShowMessage("\\n<Panties Man>Look! I managed to steal the panties off an imp! I will treasure these forever!")
  ShowMessageFace("",0,0,2,2)
  ShowMessage("\\n<Gruff Man>Holy crap! Those are the hottest things in the world!")
  355("actor_label_jump")
  EndEventProcessing()
  DefineLabel("56")
  ShowMessageFace("inp_fc1",3,0,2,3)
  ShowMessage("\\n<Rami>Um, those aren't mine, are they?")
  EndEventProcessing()
  DefineLabel("57")
  ShowMessageFace("inp_fc3",0,0,2,4)
  ShowMessage("\\n<Rumi>Sigh...")
  EndEventProcessing()
  DefineLabel("58")
  ShowMessageFace("inp_fc2",0,0,2,5)
  ShowMessage("\\n<Remi>Those aren't mine, are they? ...Still on... Phew...")
  EndEventProcessing()
  0()



EVENT   19
 PAGE   1
  ShowMessageFace("",0,0,2,1)
  ShowMessage("\\n<Panties Man>Look! I managed to steal the panties off an imp! I will treasure these forever!")
  ShowMessageFace("",0,0,2,2)
  ShowMessage("\\n<Gruff Man>Holy crap! Those are the hottest things in the world!")
  355("actor_label_jump")
  EndEventProcessing()
  DefineLabel("56")
  ShowMessageFace("inp_fc1",3,0,2,3)
  ShowMessage("\\n<Rami>Um, those aren't mine, are they?")
  EndEventProcessing()
  DefineLabel("57")
  ShowMessageFace("inp_fc3",0,0,2,4)
  ShowMessage("\\n<Rumi>Sigh...")
  EndEventProcessing()
  DefineLabel("58")
  ShowMessageFace("inp_fc2",0,0,2,5)
  ShowMessage("\\n<Remi>Those aren't mine, are they? ...Still on... Phew...")
  EndEventProcessing()
  0()



EVENT   20
 PAGE   1
  ShowMessageFace("",0,0,2,1)
  ShowMessage("\\n<Perverted Young Man>'Eating' panties is a code word for masturbating with them. Although to a master like the Panty Sensei, he might actually be devouring them.")
  If(0,6,0)
   If(0,4,0)
    ShowMessageFace("sonia_fc3",0,0,2,2)
    ShowMessage("\\n<Sonya>I wish this town were destroyed with every pervert in it...")
    0()
   EndIf()
   If(0,5,0)
    ShowMessageFace("sonia_fc3",4,0,2,3)
    ShowMessage("\\n<Sonya>I can't take this depravity any longer. Luka, please burn this place to the ground.")
    ShowMessageFace("iriasu_fc4",2,0,2,4)
    ShowMessage("\\n<Ilias>Are you trying to imitate me? I wholeheartedly agree though...")
    0()
   EndIf()
   0()
  EndIf()
  0()



EVENT   21
 PAGE   1
  If(0,6,0)
   ShowMessageFace("",0,0,2,1)
   ShowMessage("\\n<Perverted Old Man>Hoho! That's quite the erotic look you've got, young lady!")
   ShowMessageFace("sonia_fc1",5,0,2,2)
   ShowMessage("\\n<Sonya>I'm really getting sick of these perverted old men.")
   ShowMessageFace("ruka_fc1",0,0,2,3)
   ShowMessage("\\n<Luka>Actually, that's been on my mind for awhile now. That outfit of yours IS rather indecent... ish...")
   ShowMessageFace("sonia_fc2",6,0,2,4)
   ShowMessage("\\n<Sonya>...WHAT!?")
   ShowMessageFace("ruka_fc1",0,0,2,5)
   ShowMessage("\\n<Luka>Eeek!")
   0()
  Else()
   ShowMessageFace("",0,0,2,6)
   ShowMessage("\\n<Perverted Old Man>It's weird. Why don't any women settle down and live in this town?")
   0()
  EndIf()
  0()



EVENT   22
 PAGE   1
  // condition: variable 1009 >= 1
  PictureDisplay(5,"80_usagi_st01",0,0,0,0,100,100,0,0)
  PictureMove(5,null,0,0,0,0,100,100,255,0,30,true)
  If(1,1009,0,1,0)
   ChangeVariable(1009,1009,0,0,2)
   ShowMessageFace("usagi_fc1",0,0,2,1)
   ShowMessage("\\n<Rabbit Girl>Oh hi, can I help you?")
   If(0,4,0)
    ShowMessageFace("alice_fc5",6,0,2,2)
    ShowMessage("\\n<Alice>Damn, it's a completely different rabbit! She doesn't look anything like the one we're looking for!")
    0()
   EndIf()
   If(0,5,0)
    ShowMessageFace("iriasu_fc4",5,0,2,3)
    ShowMessage("\\n<Ilias>I can't believe it! She's the wrong rabbit! How could I have been so easily manipulated by false rumors...")
    0()
   EndIf()
   ShowMessageFace("usagi_fc1",0,0,2,4)
   ShowMessage("\\n<Rabbit Girl>Oh my, it appears I'm not who you thought I was. What does the rabbit you're searching for look like?")
   ShowMessageFace("ruka_fc1",0,0,2,5)
   ShowMessage("\\n<Luka>Hmmm... She has white fur and blue hair, wearing a cloak and a watch... She kind of acts like she's in a rush, too.")
   ShowMessageFace("usagi_fc1",0,0,2,6)
   ShowMessage("\\n<Rabbit Girl>I think I know who you're talking about. I remember hearing about her because she seemed strange for a Rabbit Girl.")
   ShowMessageFace("usagi_fc1",0,0,2,7)
   ShowMessage("\\n<Rabbit Girl>Supposedly she's been hanging around the South Tartarus. The investigators there have reported seeing her, at least.")
   If(0,6,0)
    ShowMessageFace("sonia_fc3",7,0,2,8)
    ShowMessage("\\n<Sonya>Tartarus? Those are the mysterious holes that opened up in the ground in the Great Disaster 30 years ago...")
    0()
   EndIf()
   If(0,4,0)
    ShowMessageFace("alice_fc5",0,0,2,9)
    ShowMessage("\\n<Alice>Tartarus? That seems like an appropriate place for someone so mysterious.")
    0()
   EndIf()
   If(0,5,0)
    ShowMessageFace("iriasu_fc4",2,0,2,10)
    ShowMessage("\\n<Ilias>Tartarus? I cannot say I am surprised given how strange this rabbit is.")
    0()
   EndIf()
   ShowMessageFace("ruka_fc1",0,0,2,11)
   ShowMessage("\\n<Luka>All right, let's go! South Tartarus here we come!")
   ShowMessageFace("usagi_fc1",0,0,2,12)
   ShowMessage("\\n<Rabbit Girl>Just so we're clear, it's the one south of Iliasville, not the other Tartarus east of here.")
   If(0,4,0)
    ShowMessageFace("alice_fc5",2,0,2,13)
    ShowMessage("\\n<Alice>Let's not forget that Amira's intel was wrong. I won't be satisfied until I give her a piece of my mind.")
    0()
   EndIf()
   If(0,5,0)
    ShowMessageFace("iriasu_fc4",7,0,2,14)
    ShowMessage("\\n<Ilias>Hold on, Luka. The information Amira gave us was clearly false. We should go teach her what happens to those who deceive a goddess.")
    0()
   EndIf()
   ShowMessageFace("ruka_fc1",0,0,2,15)
   ShowMessage("\\n<Luka>I suppose, but it did lead us in the right direction. I guess we should at least tell her that she was mistaken.")
   If(4,62,0)
    ShowMessageFace("gob_fc1",0,0,2,16)
    ShowMessage("\\n<Gob>Let's complain next time we're in Iliasburg. She might make it up to us somehow.")
    0()
   EndIf()
   PictureClear(5)
   EndEventProcessing()
   0()
  EndIf()
  If(1,1009,0,2,0)
   ShowMessageFace("usagi_fc1",0,0,2,17)
   ShowMessage("\\n<Rabbit Girl>The rabbit you're looking for has been hanging around the South Tartarus. The investigators there have reported seeing her, at least.")
   ShowMessageFace("usagi_fc1",0,0,2,18)
   ShowMessage("\\n<Rabbit Girl>Just so we're clear, it's the one south of Iliasville, not the other Tartarus east of here.")
   PictureClear(5)
   EndEventProcessing()
   0()
  EndIf()
  If(1,1009,0,3,1)
   ShowMessageFace("usagi_fc1",0,0,2,19)
   ShowMessage("\\n<Rabbit Girl>I'm going to stick around here for a while. The people in this town do... things for me... yeah.")
   355("actor_label_jump")
   PictureClear(5)
   EndEventProcessing()
   DefineLabel("54")
   ShowMessageFace("bunnyslime_fc1",2,0,2,20)
   ShowMessage("\\n<Bunni>I want to be pampered too...")
   PictureClear(5)
   EndEventProcessing()
   DefineLabel("70")
   ShowMessageFace("nezumi_fc1",0,0,2,21)
   ShowMessage("\\n<Ratty>It must be nice to be a rabbit and have everyone pamper you...")
   PictureClear(5)
   EndEventProcessing()
   DefineLabel("74")
   ShowMessageFace("usagi_fc1",0,0,2,22)
   ShowMessage("\\n<Barnny>Ooh, that sounds nice. Could I impose on you for awhile?")
   PictureClear(5)
   EndEventProcessing()
   0()
  EndIf()
  0()



EVENT   23
 PAGE   1
  250(bytes(0x04,0x08,0x6f,0x3a,0x0c,0x52,0x50,0x47,0x3a,0x3a,0x53,0x45,0x08,0x3a,0x0a,0x40,0x6e,0x61,0x6d,0x65,0x49,0x22,0x0a,0x49,0x74,0x65,0x6d,0x31,0x06,0x3a,0x06,0x45,0x54,0x3a,0x0b,0x40,0x70,0x69,0x74,0x63,0x68,0x69,0x69,0x3a,0x0c,0x40,0x76,0x6f,0x6c,0x75,0x6d,0x65,0x69,0x55))
  ChangeSelfSwitch("A",0)
  ChangeInventory_Item(165,0,0,1)
  0()
 PAGE   2
  // condition: self-switch A is ON
  0()



EVENT   25
 PAGE   1
  If(6,-1,8)
   ShowMessageFace("",0,0,2,1)
   ShowMessage("1 coin per pull. Play?")
   ShowChoices(strings("Yes","No"),2)
   IfPlayerPicksChoice(0,null)
    241(bytes(0x04,0x08,0x6f,0x3a,0x0d,0x52,0x50,0x47,0x3a,0x3a,0x42,0x47,0x4d,0x08,0x3a,0x0a,0x40,0x6e,0x61,0x6d,0x65,0x49,0x22,0x0c,0x63,0x61,0x73,0x69,0x6e,0x6f,0x32,0x06,0x3a,0x06,0x45,0x54,0x3a,0x0c,0x40,0x76,0x6f,0x6c,0x75,0x6d,0x65,0x69,0x69,0x3a,0x0b,0x40,0x70,0x69,0x74,0x63,0x68,0x69,0x69))
    355("call_slot_scene(1)")
    241(bytes(0x04,0x08,0x6f,0x3a,0x0d,0x52,0x50,0x47,0x3a,0x3a,0x42,0x47,0x4d,0x08,0x3a,0x0a,0x40,0x6e,0x61,0x6d,0x65,0x49,0x22,0x0a,0x63,0x69,0x74,0x79,0x31,0x06,0x3a,0x06,0x45,0x54,0x3a,0x0c,0x40,0x76,0x6f,0x6c,0x75,0x6d,0x65,0x69,0x69,0x3a,0x0b,0x40,0x70,0x69,0x74,0x63,0x68,0x69,0x69))
    0()
   IfPlayerPicksChoice(1,null)
    0()
   404()
   0()
  EndIf()
  0()



EVENT   29
 PAGE   1
  250(bytes(0x04,0x08,0x6f,0x3a,0x0c,0x52,0x50,0x47,0x3a,0x3a,0x53,0x45,0x08,0x3a,0x0a,0x40,0x6e,0x61,0x6d,0x65,0x49,0x22,0x09,0x4d,0x6f,0x76,0x65,0x06,0x3a,0x06,0x45,0x54,0x3a,0x0b,0x40,0x70,0x69,0x74,0x63,0x68,0x69,0x69,0x3a,0x0c,0x40,0x76,0x6f,0x6c,0x75,0x6d,0x65,0x69,0x55))
  TeleportPlayer(0,52,3,55,2,0)
  0()



EVENT   30
 PAGE   1
  ShowMessageFace("",0,0,2,1)
  ShowMessage("\\n<Dealer>How about a hand of poker?")
  ShowChoices(strings("Yes","No"),2)
  IfPlayerPicksChoice(0,null)
   241(bytes(0x04,0x08,0x6f,0x3a,0x0d,0x52,0x50,0x47,0x3a,0x3a,0x42,0x47,0x4d,0x08,0x3a,0x0a,0x40,0x6e,0x61,0x6d,0x65,0x49,0x22,0x0c,0x63,0x61,0x73,0x69,0x6e,0x6f,0x32,0x06,0x3a,0x06,0x45,0x54,0x3a,0x0c,0x40,0x76,0x6f,0x6c,0x75,0x6d,0x65,0x69,0x69,0x3a,0x0b,0x40,0x70,0x69,0x74,0x63,0x68,0x69,0x69))
   355("start_poker(10, 1, 1)")
   241(bytes(0x04,0x08,0x6f,0x3a,0x0d,0x52,0x50,0x47,0x3a,0x3a,0x42,0x47,0x4d,0x08,0x3a,0x0a,0x40,0x6e,0x61,0x6d,0x65,0x49,0x22,0x0a,0x63,0x69,0x74,0x79,0x31,0x06,0x3a,0x06,0x45,0x54,0x3a,0x0c,0x40,0x76,0x6f,0x6c,0x75,0x6d,0x65,0x69,0x69,0x3a,0x0b,0x40,0x70,0x69,0x74,0x63,0x68,0x69,0x69))
   0()
  IfPlayerPicksChoice(1,null)
   0()
  404()
  0()



EVENT   31
 PAGE   1
  0()



EVENT   32
 PAGE   1
  0()



EVENT   33
 PAGE   1
  0()



EVENT   34
 PAGE   1
  If(1,110,0,0,0)
   ShowMessageFace("",0,0,2,1)
   ShowMessage("\\n<Bunny>You currently have no coins. Would you like to purchase some? Or perhaps view the prizes?")
   0()
  Else()
   ShowMessageFace("",0,0,2,2)
   ShowMessage("\\n<Bunny>You currently have \\V[110] coins. Would you like to purchase more? Or perhaps exchange the ones you have for a prize?")
   0()
  EndIf()
  ShowChoices(strings("Buy coins","View prizes","Never mind"),3)
  IfPlayerPicksChoice(0,null)
   ShowChoices(strings("15 coins (300G)","60 coins (1000G)","350 coins (5000G)","Never mind"),4)
   IfPlayerPicksChoice(0,null)
    If(7,300,0)
     250(bytes(0x04,0x08,0x6f,0x3a,0x0c,0x52,0x50,0x47,0x3a,0x3a,0x53,0x45,0x08,0x3a,0x0a,0x40,0x6e,0x61,0x6d,0x65,0x49,0x22,0x09,0x43,0x6f,0x69,0x6e,0x06,0x3a,0x06,0x45,0x54,0x3a,0x0b,0x40,0x70,0x69,0x74,0x63,0x68,0x69,0x69,0x3a,0x0c,0x40,0x76,0x6f,0x6c,0x75,0x6d,0x65,0x69,0x55))
     355("gain_coin(15)")
     125(1,0,300)
     ShowMessageFace("",0,0,2,3)
     ShowMessage("15 coins purchased! (Have: \\V[110])")
     0()
    Else()
     ShowMessageFace("",0,0,2,4)
     ShowMessage("\\n<Bunny>You don't have that much money.")
     0()
    EndIf()
    0()
   IfPlayerPicksChoice(1,null)
    If(7,1000,0)
     250(bytes(0x04,0x08,0x6f,0x3a,0x0c,0x52,0x50,0x47,0x3a,0x3a,0x53,0x45,0x08,0x3a,0x0a,0x40,0x6e,0x61,0x6d,0x65,0x49,0x22,0x09,0x43,0x6f,0x69,0x6e,0x06,0x3a,0x06,0x45,0x54,0x3a,0x0b,0x40,0x70,0x69,0x74,0x63,0x68,0x69,0x69,0x3a,0x0c,0x40,0x76,0x6f,0x6c,0x75,0x6d,0x65,0x69,0x55))
     355("gain_coin(60)")
     125(1,0,1000)
     ShowMessageFace("",0,0,2,5)
     ShowMessage("60 coins purchased! (Have: \\V[110])")
     0()
    Else()
     ShowMessageFace("",0,0,2,6)
     ShowMessage("\\n<Bunny>You don't have that much money.")
     0()
    EndIf()
    0()
   IfPlayerPicksChoice(2,null)
    If(7,5000,0)
     250(bytes(0x04,0x08,0x6f,0x3a,0x0c,0x52,0x50,0x47,0x3a,0x3a,0x53,0x45,0x08,0x3a,0x0a,0x40,0x6e,0x61,0x6d,0x65,0x49,0x22,0x09,0x43,0x6f,0x69,0x6e,0x06,0x3a,0x06,0x45,0x54,0x3a,0x0b,0x40,0x70,0x69,0x74,0x63,0x68,0x69,0x69,0x3a,0x0c,0x40,0x76,0x6f,0x6c,0x75,0x6d,0x65,0x69,0x55))
     355("gain_coin(350)")
     125(1,0,5000)
     ShowMessageFace("",0,0,2,7)
     ShowMessage("350 coins purchased! (Have: \\V[110])")
     0()
    Else()
     ShowMessageFace("",0,0,2,8)
     ShowMessage("\\n<Bunny>You don't have that much money.")
     0()
    EndIf()
    0()
   IfPlayerPicksChoice(3,null)
    0()
   404()
   0()
  IfPlayerPicksChoice(1,null)
   355("goods = []")
   655("goods.push [100, :I, 4]")
   655("goods.push [150, :A, 163]")
   655("goods.push [200, :I, 22]")
   655("goods.push [250, :A, 164]")
   655("goods.push [300, :A, 259]")
   655("goods.push [400, :A, 1733]")
   655("goods.push [400, :A, 1735]")
   655("goods.push [750, :W, 703]")
   655("goods.push [1500, :A, 1115]")
   655("goods.push [2500, :A, 1703]")
   655("call_casino_prize(goods)")
   0()
  IfPlayerPicksChoice(2,null)
   0()
  404()
  EndEventProcessing()
  0()



EVENT   35
 PAGE   1
  0()



EVENT   36
 PAGE   1
  0()



EVENT   37
 PAGE   1
  ShowMessageFace("",0,0,2,1)
  ShowMessage("\\n<Gruff Man>Aaaah, I was so close! One more try!")
  355("actor_label_jump")
  EndEventProcessing()
  DefineLabel("60")
  ShowMessageFace("dog_fc1",2,0,2,2)
  ShowMessage("\\n<Pochi>The refrain of a man on the road to ruin. Before long he'll be nothing more than a pile of meaty bones for me to chew on...")
  ShowMessageFace("dog_fc1",4,0,2,3)
  ShowMessage("\\n<Pochi>......kidding!")
  EndEventProcessing()
  0()



EVENT   38
 PAGE   1
  ShowMessageFace("",0,0,2,1)
  ShowMessage("\\n<Youth>What am I doing wrong... I KNOW this is my ticket to success! If I turn the slots just like this, my luck has to turn around.")
  0()



EVENT   39
 PAGE   1
  ShowMessageFace("",0,0,2,1)
  ShowMessage("\\n<Man>Stop! Stooooop!")
  0()



EVENT   40
 PAGE   1
  ShowMessageFace("",0,0,2,1)
  ShowMessage("\\n<Ilias Temple Soldier>This is the only casino on the Ilias Continent. I spend most of my holidays here.")
  ShowMessageFace("",0,0,2,2)
  ShowMessage("\\n<Ilias Temple Soldier>Whoa, it's Luka! Please don't tell anyone you saw me here...")
  0()



EVENT   42
 PAGE   1
  ShowMessageFace("",0,0,2,1)
  ShowMessage("\\n<Old Man>When gambling, you're ruined if you let your emotions get out of control. You'll do a lot better if you just enjoy yourself.")
  355("actor_label_jump")
  EndEventProcessing()
  DefineLabel("62")
  ShowMessageFace("gob_fc1",0,0,2,2)
  ShowMessage("\\n<Gob>It's best to decide how much you're willing to lose beforehand and then never, ever go past that limit.")
  EndEventProcessing()
  0()



EVENT   41
 PAGE   1
  ShowMessageFace("",0,0,2,1)
  ShowMessage("\\n<Man>Oh no oh no oh no, what am I going to do!? All of it... I lost every bit of gold the shop had...")
  355("actor_label_jump")
  EndEventProcessing()
  DefineLabel("66")
  ShowMessageFace("vgirl_fc1",0,0,2,2)
  ShowMessage("\\n<Vanilla>Now that's a terrible merchant. An excellent example of what not to do.")
  EndEventProcessing()
  0()



EVENT   43
 PAGE   1
  250(bytes(0x04,0x08,0x6f,0x3a,0x0c,0x52,0x50,0x47,0x3a,0x3a,0x53,0x45,0x08,0x3a,0x0a,0x40,0x6e,0x61,0x6d,0x65,0x49,0x22,0x0a,0x49,0x74,0x65,0x6d,0x31,0x06,0x3a,0x06,0x45,0x54,0x3a,0x0b,0x40,0x70,0x69,0x74,0x63,0x68,0x69,0x69,0x3a,0x0c,0x40,0x76,0x6f,0x6c,0x75,0x6d,0x65,0x69,0x55))
  ChangeSelfSwitch("A",0)
  ChangeInventory_Item(67,0,0,1)
  0()
 PAGE   2
  // condition: self-switch A is ON
  0()



EVENT   28
 PAGE   1
  250(bytes(0x04,0x08,0x6f,0x3a,0x0c,0x52,0x50,0x47,0x3a,0x3a,0x53,0x45,0x08,0x3a,0x0a,0x40,0x6e,0x61,0x6d,0x65,0x49,0x22,0x09,0x4d,0x6f,0x76,0x65,0x06,0x3a,0x06,0x45,0x54,0x3a,0x0b,0x40,0x70,0x69,0x74,0x63,0x68,0x69,0x69,0x3a,0x0c,0x40,0x76,0x6f,0x6c,0x75,0x6d,0x65,0x69,0x55))
  TeleportPlayer(0,52,31,58,2,0)
  0()



EVENT   44
 PAGE   1
  ShowMessageFace("",0,0,2,1)
  ShowMessage("\\n<Man>Down these stairs is Pornof's infamous location! Go and enjoy yourselves!")
  355("actor_label_jump")
  EndEventProcessing()
  DefineLabel("71")
  ShowMessageFace("okami_fc1",0,0,2,2)
  ShowMessage("\\n<Amara>Ooh an infamous location! ...Never heard of it.")
  EndEventProcessing()
  DefineLabel("73")
  ShowMessageFace("hiru_fc1",1,0,2,3)
  ShowMessage("\\n<Hiru>Uhuhu, I can't wait...")
  EndEventProcessing()
  DefineLabel("540")
  ShowMessageFace("amira_fc1",0,0,2,4)
  ShowMessage("\\n<Amira>Hoho, now what do we have here...")
  EndEventProcessing()
  0()



EVENT   14
 PAGE   1
  ShowMessageFace("",0,0,2,1)
  ShowMessage("\\n<Guard>This place may be a den of perverts now, but it used to be an iron-working town. The old man here supposedly inherited that knowledge.")
  ShowMessageFace("",0,0,2,2)
  ShowMessage("\\n<Guard>He says he can craft high-quality iron goods if you bring him the raw iron, but the easy pickings were mined out long ago. The good stuff can only be found deep in the mine.")
  ShowMessageFace("",0,0,2,3)
  ShowMessage("\\n<Guard>Where's the mine? It's directly northeast of town. As long as you keep a Lump of Iron on you, you can make as much iron equipment as you like.")
  0()



EVENT   45
 PAGE   1
  ShowMessageFace("",0,0,2,1)
  ShowMessage("\\n<Traveling Warrior>Insect monsters have extremely high defenses to both physical and magic. Their elemental defenses are almost all high as well, which makes them formidable enemies.")
  ShowMessageFace("",0,0,2,2)
  ShowMessage("\\n<Traveling Warrior>Fortunately, they're pretty weak to bad status effects. If you're having a tough time beating them head-on, try inflicting a few status effects.")
  0()



EVENT   26
 PAGE   1
  0()



EVENT   27
 PAGE   1
  0()



EVENT   46
 PAGE   1
  0()



EVENT   47
 PAGE   1
  0()



EVENT   3
 PAGE   1
  ChangeSwitch(100,100,1)
  If(1,1038,0,1,0)
   ChangeVariable(1038,1038,0,0,2)
   ShowMessageFace("",0,0,2,1)
   ShowMessage("\\n<Scat Captain>Aaah! Scat Captain gonna come!")
   281(1)
   250(bytes(0x04,0x08,0x6f,0x3a,0x0c,0x52,0x50,0x47,0x3a,0x3a,0x53,0x45,0x08,0x3a,0x0a,0x40,0x6e,0x61,0x6d,0x65,0x49,0x22,0x09,0x4d,0x6f,0x76,0x65,0x06,0x3a,0x06,0x45,0x54,0x3a,0x0b,0x40,0x70,0x69,0x74,0x63,0x68,0x69,0x69,0x3a,0x0c,0x40,0x76,0x6f,0x6c,0x75,0x6d,0x65,0x69,0x55))
   TeleportPlayer(0,51,9,25,0,0)
   250(bytes(0x04,0x08,0x6f,0x3a,0x0c,0x52,0x50,0x47,0x3a,0x3a,0x53,0x45,0x08,0x3a,0x0a,0x40,0x6e,0x61,0x6d,0x65,0x49,0x22,0x0e,0x6d,0x6f,0x6e,0x5f,0x61,0x71,0x75,0x61,0x32,0x06,0x3a,0x06,0x45,0x54,0x3a,0x0b,0x40,0x70,0x69,0x74,0x63,0x68,0x69,0x69,0x3a,0x0c,0x40,0x76,0x6f,0x6c,0x75,0x6d,0x65,0x69,0x55))
   ShowMessageFace("",0,0,2,2)
   ShowMessage("\\n<Scat Captain>Comiiiiiiiing!!")
   EndEventProcessing()
   0()
  EndIf()
  If(1,1038,0,3,0)
   ChangeVariable(1038,1038,0,0,4)
   ShowMessageFace("",0,0,2,3)
   ShowMessage("\\n<Scat Captain>Aaah! Scat Captain gonna come!")
   281(1)
   250(bytes(0x04,0x08,0x6f,0x3a,0x0c,0x52,0x50,0x47,0x3a,0x3a,0x53,0x45,0x08,0x3a,0x0a,0x40,0x6e,0x61,0x6d,0x65,0x49,0x22,0x09,0x4d,0x6f,0x76,0x65,0x06,0x3a,0x06,0x45,0x54,0x3a,0x0b,0x40,0x70,0x69,0x74,0x63,0x68,0x69,0x69,0x3a,0x0c,0x40,0x76,0x6f,0x6c,0x75,0x6d,0x65,0x69,0x55))
   TeleportPlayer(0,51,9,25,0,0)
   250(bytes(0x04,0x08,0x6f,0x3a,0x0c,0x52,0x50,0x47,0x3a,0x3a,0x53,0x45,0x08,0x3a,0x0a,0x40,0x6e,0x61,0x6d,0x65,0x49,0x22,0x0a,0x49,0x63,0x65,0x31,0x30,0x06,0x3a,0x06,0x45,0x54,0x3a,0x0b,0x40,0x70,0x69,0x74,0x63,0x68,0x69,0x69,0x3a,0x0c,0x40,0x76,0x6f,0x6c,0x75,0x6d,0x65,0x69,0x55))
   ShowMessageFace("",0,0,2,4)
   ShowMessage("\\n<Scat Captain>Is this... youth?")
   355("gain_medal(2016)")
   EndEventProcessing()
   0()
  EndIf()
  281(1)
  250(bytes(0x04,0x08,0x6f,0x3a,0x0c,0x52,0x50,0x47,0x3a,0x3a,0x53,0x45,0x08,0x3a,0x0a,0x40,0x6e,0x61,0x6d,0x65,0x49,0x22,0x09,0x4d,0x6f,0x76,0x65,0x06,0x3a,0x06,0x45,0x54,0x3a,0x0b,0x40,0x70,0x69,0x74,0x63,0x68,0x69,0x69,0x3a,0x0c,0x40,0x76,0x6f,0x6c,0x75,0x6d,0x65,0x69,0x55))
  TeleportPlayer(0,51,9,25,0,0)
  0()



EVENT   24
 PAGE   1
  If(1,805,0,2,1)
   If(0,1548,1)
    ShowMessageFace("mob_bunny1_fc1",0,0,2,1)
    ShowMessage("\\n<Bunny-Chan>It sure would be nice if someone would invite me on their adventure...")
    ShowChoices(strings("Let her join","Decline for now"),0)
    IfPlayerPicksChoice(0,null)
     ShowMessageFace("mob_bunny1_fc1",0,0,2,2)
     ShowMessage("\\n<Bunny-Chan>Yay! Thanks a lot! ♪")
     PictureClear(5)
     205(0,bytes(0x04,0x08,0x6f,0x3a,0x13,0x52,0x50,0x47,0x3a,0x3a,0x4d,0x6f,0x76,0x65,0x52,0x6f,0x75,0x74,0x65,0x09,0x3a,0x0c,0x40,0x72,0x65,0x70,0x65,0x61,0x74,0x46,0x3a,0x0f,0x40,0x73,0x6b,0x69,0x70,0x70,0x61,0x62,0x6c,0x65,0x46,0x3a,0x0a,0x40,0x77,0x61,0x69,0x74,0x54,0x3a,0x0a,0x40,0x6c,0x69,0x73,0x74,0x5b,0x09,0x6f,0x3a,0x15,0x52,0x50,0x47,0x3a,0x3a,0x4d,0x6f,0x76,0x65,0x43,0x6f,0x6d,0x6d,0x61,0x6e,0x64,0x07,0x3a,0x0a,0x40,0x63,0x6f,0x64,0x65,0x69,0x2a,0x3a,0x10,0x40,0x70,0x61,0x72,0x61,0x6d,0x65,0x74,0x65,0x72,0x73,0x5b,0x00,0x6f,0x3b,0x0a,0x07,0x3b,0x0b,0x69,0x0f,0x3b,0x0c,0x5b,0x00,0x6f,0x3b,0x0a,0x07,0x3b,0x0b,0x69,0x2c,0x3b,0x0c,0x5b,0x00,0x6f,0x3b,0x0a,0x07,0x3b,0x0b,0x69,0x00,0x3b,0x0c,0x5b,0x00))
     355("add_actor_ex(548)")
     249(bytes(0x04,0x08,0x6f,0x3a,0x0c,0x52,0x50,0x47,0x3a,0x3a,0x4d,0x45,0x08,0x3a,0x0a,0x40,0x6e,0x61,0x6d,0x65,0x49,0x22,0x0c,0x66,0x61,0x6e,0x66,0x61,0x6c,0x65,0x06,0x3a,0x06,0x45,0x54,0x3a,0x0b,0x40,0x70,0x69,0x74,0x63,0x68,0x69,0x69,0x3a,0x0c,0x40,0x76,0x6f,0x6c,0x75,0x6d,0x65,0x69,0x69))
     ShowMessageFace("",0,0,2,3)
     ShowMessage("Bunny-chan joined the party!")
     Wait(60)
     EndEventProcessing()
     0()
    IfPlayerPicksChoice(1,null)
     ShowMessageFace("mob_bunny1_fc1",0,0,2,4)
     ShowMessage("\\n<Bunny-Chan>Sad times.")
     0()
    404()
    0()
   EndIf()
   0()
  EndIf()
  RunCommonEvent(7041)
  0()
 PAGE   2
  // condition: party contains actor #548
  0()



EVENT   10
 PAGE   1
  If(1,1038,0,0,0)
   ChangeVariable(1038,1038,0,0,1)
   ShowMessageFace("",0,0,2,1)
   ShowMessage("\\n<Scat Captain>I'm the Scat Captain. Anything I can do for you?")
   ShowChoices(strings("Nothing","Stay silent","Leave"),1)
   IfPlayerPicksChoice(0,null)
    0()
   IfPlayerPicksChoice(1,null)
    0()
   IfPlayerPicksChoice(2,null)
    0()
   404()
   ShowMessageFace("",0,0,2,2)
   ShowMessage("\\n<Scat Captain>大人をからかうものではないな。")
   250(bytes(0x04,0x08,0x6f,0x3a,0x0c,0x52,0x50,0x47,0x3a,0x3a,0x53,0x45,0x08,0x3a,0x0a,0x40,0x6e,0x61,0x6d,0x65,0x49,0x22,0x0a,0x49,0x63,0x65,0x31,0x30,0x06,0x3a,0x06,0x45,0x54,0x3a,0x0b,0x40,0x70,0x69,0x74,0x63,0x68,0x69,0x69,0x3a,0x0c,0x40,0x76,0x6f,0x6c,0x75,0x6d,0x65,0x69,0x69))
   Wait(30)
   ShowMessageFace("",0,0,2,3)
   ShowMessage("\\n<Scat Captain>……この感覚は？ そこの君、待ちたまえ。")
   ShowMessageFace("sonia_fc2",2,0,2,4)
   ShowMessage("\\n<Sonya>え……？　なんですか……？")
   ShowMessageFace("",0,0,2,5)
   ShowMessage("\\n<Scat Captain>せっかくだから、お茶でも飲んでいくといい。 このような機会、逃すわけにはいかんのでな。")
   ShowMessageFace("",0,0,2,6)
   ShowMessage("\\n<Scat Captain>ちなみに、私の性癖を知っているかな？")
   DefineLabel("0")
   ShowChoices(strings("ロリコン","シスコン","マザコン","スカトロ"),0)
   IfPlayerPicksChoice(0,null)
    ShowMessageFace("",0,0,2,7)
    ShowMessage("\\n<Scat Captain>私のことを、そう揶揄する者もいる。 だが、それでは本質を捉えているとは言えないな。")
    JumpToLabel("0")
    0()
   IfPlayerPicksChoice(1,null)
    ShowMessageFace("",0,0,2,8)
    ShowMessage("\\n<Scat Captain>流石と言いたいが……違うな。")
    JumpToLabel("0")
    0()
   IfPlayerPicksChoice(2,null)
    ShowMessageFace("",0,0,2,9)
    ShowMessage("\\n<Scat Captain>まるで見てきたかのように言う…… 残念だが、それは違うな。")
    JumpToLabel("0")
    0()
   IfPlayerPicksChoice(3,null)
    JumpToLabel("1")
    0()
   404()
   DefineLabel("1")
   ShowMessageFace("",0,0,2,10)
   ShowMessage("\\n<Scat Captain>我ながら、難儀なものだよ。 こんな性癖では、嫁さんももらえん。")
   ShowMessageFace("",0,0,2,11)
   ShowMessage("\\n<Scat Captain>どうした？　お茶に手を付けていないようだが…… さあ、一気に飲んでしまうといい。")
   ShowMessageFace("",0,0,2,12)
   ShowMessage("\\n<Scat Captain>ちなみにトイレは、そこの壺だよ。 別に他意はない、ただ伝えたかっただけだ。")
   ShowMessageFace("sonia_fc3",4,0,2,13)
   ShowMessage("\\n<Sonya>……そのお茶、自分で飲んでみて下さい。")
   ShowMessageFace("",0,0,2,14)
   ShowMessage("\\n<Scat Captain>サボテンが花を付けている……")
   ShowMessageFace("sonia_fc2",5,0,2,15)
   ShowMessage("\\n<Sonya>自分で飲みなさい、この変態犯罪者！ ムリヤリ飲ませてやるんだから！")
   ShowMessageFace("",0,0,2,16)
   ShowMessage("\\n<Scat Captain>んぐ……！　やめたまえ……！ 聞こえているならやめろ！")
   ShowMessageFace("",0,0,2,17)
   ShowMessage("ソニアはスカトロ大尉に、強引に怪しいお茶を飲ませた！")
   ShowMessageFace("",0,0,2,18)
   ShowMessage("\\n<Scat Captain>ぐっ……やる！")
   ShowMessageFace("sonia_fc3",5,0,2,19)
   ShowMessage("\\n<Sonya>こんなところに用はないでしょ。 さっさと行くわよ、ルカ。")
   0()
  EndIf()
  If(1,1038,0,1,0)
   ShowMessageFace("",0,0,2,20)
   ShowMessage("\\n<Scat Captain>はぁはぁ……ぐぅぅっ……")
   0()
  EndIf()
  If(1,1038,0,2,0)
   ChangeVariable(1038,1038,0,0,3)
   ShowMessageFace("",0,0,2,21)
   ShowMessage("\\n<Scat Captain>帰りたまえ。 私はこれでも多忙なのでね……")
   ShowMessageFace("kamuro_fc1",0,0,2,22)
   ShowMessage("\\n<Kamuro>はぁ……失礼しました。")
   250(bytes(0x04,0x08,0x6f,0x3a,0x0c,0x52,0x50,0x47,0x3a,0x3a,0x53,0x45,0x08,0x3a,0x0a,0x40,0x6e,0x61,0x6d,0x65,0x49,0x22,0x0a,0x49,0x63,0x65,0x31,0x30,0x06,0x3a,0x06,0x45,0x54,0x3a,0x0b,0x40,0x70,0x69,0x74,0x63,0x68,0x69,0x69,0x3a,0x0c,0x40,0x76,0x6f,0x6c,0x75,0x6d,0x65,0x69,0x69))
   Wait(30)
   ShowMessageFace("",0,0,2,23)
   ShowMessage("\\n<Scat Captain>この感じ……カムロか！？")
   ShowMessageFace("kamuro_fc1",2,0,2,24)
   ShowMessage("\\n<Kamuro>そ、そうですけど……なんでしょう？")
   ShowMessageFace("sonia_fc3",2,0,2,25)
   ShowMessage("\\n<Sonya>かむろちゃん、関わっちゃダメ！")
   ShowMessageFace("",0,0,2,26)
   ShowMessage("\\n<Scat Captain>君は、○ャ○・ア○ナ○ルという人の事を知っているかな？")
   ShowMessageFace("kamuro_fc1",2,0,2,27)
   ShowMessage("\\n<Kamuro>えっと、伏せ字が多くてよく分からないんですけれど……")
   ShowMessageFace("",0,0,2,28)
   ShowMessage("\\n<Scat Captain>私はかつて、○ャ○・ア○ナ○ルという名で呼ばれたこともある男だ！ この場を借りてもう一度言う、ア○ナ○ル！")
   ShowMessageFace("sonia_fc2",6,0,2,29)
   ShowMessage("\\n<Sonya>伏せ字にかこつけて、破廉恥ワードを叫ばないでよ！")
   ShowMessageFace("",0,0,2,30)
   ShowMessage("\\n<Scat Captain>私は年下の少女に母性を投影し、スカトロを強要する…… そんな、どうしようもない人間だ。")
   ShowMessageFace("kamuro_fc1",2,0,2,31)
   ShowMessage("\\n<Kamuro>本当に、どうしようもないですね……")
   ShowMessageFace("",0,0,2,32)
   ShowMessage("\\n<Scat Captain>しかし、この温かさを持った人間が恥丘さえ破壊するんだ！ それを分かるんだよ、カムロ！")
   ShowMessageFace("kamuro_fc1",2,0,2,33)
   ShowMessage("\\n<Kamuro>さっぱり分かりません！")
   ShowMessageFace("sonia_fc2",5,0,2,34)
   ShowMessage("\\n<Sonya>相手しちゃダメ、逃げるわよ！")
   ShowMessageFace("",0,0,2,35)
   ShowMessage("\\n<Scat Captain>まだだ、まだ終わらんよ！ カムロ！　このお茶を飲むんだ！")
   ShowMessageFace("kamuro_fc1",2,0,2,36)
   ShowMessage("\\n<Kamuro>そ、それ以上おかしな事をするなら…… 陰陽術を使いますよ！")
   ShowMessageFace("",0,0,2,37)
   ShowMessage("突然、スカトロ大尉はかむろに抱きついた！")
   ShowMessageFace("",0,0,2,38)
   ShowMessage("\\n<Scat Captain>これであの武器は使えまい！")
   ShowMessageFace("kamuro_fc1",2,0,2,39)
   ShowMessage("\\n<Kamuro>きゃぁぁぁー！！")
   250(bytes(0x04,0x08,0x6f,0x3a,0x0c,0x52,0x50,0x47,0x3a,0x3a,0x53,0x45,0x08,0x3a,0x0a,0x40,0x6e,0x61,0x6d,0x65,0x49,0x22,0x0e,0x6d,0x6f,0x6e,0x5f,0x73,0x70,0x61,0x6e,0x6b,0x06,0x3a,0x06,0x45,0x54,0x3a,0x0b,0x40,0x70,0x69,0x74,0x63,0x68,0x69,0x69,0x3a,0x0c,0x40,0x76,0x6f,0x6c,0x75,0x6d,0x65,0x69,0x69))
   Wait(10)
   250(bytes(0x04,0x08,0x6f,0x3a,0x0c,0x52,0x50,0x47,0x3a,0x3a,0x53,0x45,0x08,0x3a,0x0a,0x40,0x6e,0x61,0x6d,0x65,0x49,0x22,0x0e,0x6d,0x6f,0x6e,0x5f,0x73,0x70,0x61,0x6e,0x6b,0x06,0x3a,0x06,0x45,0x54,0x3a,0x0b,0x40,0x70,0x69,0x74,0x63,0x68,0x69,0x69,0x3a,0x0c,0x40,0x76,0x6f,0x6c,0x75,0x6d,0x65,0x69,0x69))
   Wait(10)
   250(bytes(0x04,0x08,0x6f,0x3a,0x0c,0x52,0x50,0x47,0x3a,0x3a,0x53,0x45,0x08,0x3a,0x0a,0x40,0x6e,0x61,0x6d,0x65,0x49,0x22,0x0e,0x6d,0x6f,0x6e,0x5f,0x73,0x70,0x61,0x6e,0x6b,0x06,0x3a,0x06,0x45,0x54,0x3a,0x0b,0x40,0x70,0x69,0x74,0x63,0x68,0x69,0x69,0x3a,0x0c,0x40,0x76,0x6f,0x6c,0x75,0x6d,0x65,0x69,0x69))
   ShowMessageFace("",0,0,2,40)
   ShowMessage("かむろはスカトロ大尉に往復ビンタを繰り出した！")
   ShowMessageFace("",0,0,2,41)
   ShowMessage("\\n<Scat Captain>モニターが死ぬっ！　なにっ！")
   ShowMessageFace("sonia_fc2",5,0,2,42)
   ShowMessage("\\n<Sonya>今よ！　このお茶を無理矢理に飲ませて……")
   ShowMessageFace("",0,0,2,43)
   ShowMessage("\\n<Scat Captain>んぐ……！　やめたまえ……！ 聞こえているならやめろ！")
   ShowMessageFace("",0,0,2,44)
   ShowMessage("ソニアはスカトロ大尉に、強引に怪しいお茶を飲ませた！")
   ShowMessageFace("",0,0,2,45)
   ShowMessage("\\n<Scat Captain>ぐっ……やる！")
   ShowMessageFace("sonia_fc3",5,0,2,46)
   ShowMessage("\\n<Sonya>こんなところに用はないでしょ。 さっさと行くわよ、ルカ。")
   0()
  EndIf()
  If(1,1038,0,3,0)
   ShowMessageFace("",0,0,2,47)
   ShowMessage("\\n<Scat Captain>はぁはぁ……ぐぅぅっ……")
   0()
  EndIf()
  If(1,1038,0,4,0)
   ShowMessageFace("",0,0,2,48)
   ShowMessage("\\n<Scat Captain>籠の中の鳥は、鑑賞される道具でしかない事を覚えておくといい。")
   If(0,1566,1)
    ShowMessageFace("",0,0,2,49)
    ShowMessage("\\n<Scat Captain>私は、いつも一人の男だった。 同志になってはくれないか？")
    ShowChoices(strings("Let him join","Decline for now"),0)
    IfPlayerPicksChoice(0,null)
     ShowMessageFace("",0,0,2,50)
     ShowMessage("\\n<Scat Captain>勝利の栄光を、君に！")
     PictureClear(5)
     205(0,bytes(0x04,0x08,0x6f,0x3a,0x13,0x52,0x50,0x47,0x3a,0x3a,0x4d,0x6f,0x76,0x65,0x52,0x6f,0x75,0x74,0x65,0x09,0x3a,0x0c,0x40,0x72,0x65,0x70,0x65,0x61,0x74,0x46,0x3a,0x0f,0x40,0x73,0x6b,0x69,0x70,0x70,0x61,0x62,0x6c,0x65,0x46,0x3a,0x0a,0x40,0x77,0x61,0x69,0x74,0x54,0x3a,0x0a,0x40,0x6c,0x69,0x73,0x74,0x5b,0x09,0x6f,0x3a,0x15,0x52,0x50,0x47,0x3a,0x3a,0x4d,0x6f,0x76,0x65,0x43,0x6f,0x6d,0x6d,0x61,0x6e,0x64,0x07,0x3a,0x0a,0x40,0x63,0x6f,0x64,0x65,0x69,0x2a,0x3a,0x10,0x40,0x70,0x61,0x72,0x61,0x6d,0x65,0x74,0x65,0x72,0x73,0x5b,0x00,0x6f,0x3b,0x0a,0x07,0x3b,0x0b,0x69,0x0f,0x3b,0x0c,0x5b,0x00,0x6f,0x3b,0x0a,0x07,0x3b,0x0b,0x69,0x2c,0x3b,0x0c,0x5b,0x00,0x6f,0x3b,0x0a,0x07,0x3b,0x0b,0x69,0x00,0x3b,0x0c,0x5b,0x00))
     355("add_actor_ex(566)")
     249(bytes(0x04,0x08,0x6f,0x3a,0x0c,0x52,0x50,0x47,0x3a,0x3a,0x4d,0x45,0x08,0x3a,0x0a,0x40,0x6e,0x61,0x6d,0x65,0x49,0x22,0x0c,0x66,0x61,0x6e,0x66,0x61,0x6c,0x65,0x06,0x3a,0x06,0x45,0x54,0x3a,0x0b,0x40,0x70,0x69,0x74,0x63,0x68,0x69,0x69,0x3a,0x0c,0x40,0x76,0x6f,0x6c,0x75,0x6d,0x65,0x69,0x69))
     ShowMessageFace("",0,0,2,51)
     ShowMessage("Scat Captain joins the party!")
     Wait(60)
     EndEventProcessing()
     0()
    IfPlayerPicksChoice(1,null)
     ShowMessageFace("",0,0,2,52)
     ShowMessage("\\n<Scat Captain>そんな決定権がお前にあるのか？")
     0()
    404()
    0()
   EndIf()
   0()
  EndIf()
  0()
 PAGE   2
  // condition: party contains actor #566
  0()



EVENT   16
 PAGE   1
  If(1,1048,0,5,1)
   If(0,1567,1)
    ShowMessageFace("",0,0,2,1)
    ShowMessage("\\n<Panty Sensei>I'd love to travel the world... and see all the kinds of panties there are.")
    ShowMessageFace("",0,0,2,2)
    ShowMessage("\\n<Panty Sensei>Would you please let me accompany you?")
    ShowChoices(strings("Let him join","Decline for now"),0)
    IfPlayerPicksChoice(0,null)
     ShowMessageFace("",0,0,2,3)
     ShowMessage("\\n<Panty Sensei>I'm in your debt. Aaah, what kinds of panties await me...")
     PictureClear(5)
     205(0,bytes(0x04,0x08,0x6f,0x3a,0x13,0x52,0x50,0x47,0x3a,0x3a,0x4d,0x6f,0x76,0x65,0x52,0x6f,0x75,0x74,0x65,0x09,0x3a,0x0c,0x40,0x72,0x65,0x70,0x65,0x61,0x74,0x46,0x3a,0x0f,0x40,0x73,0x6b,0x69,0x70,0x70,0x61,0x62,0x6c,0x65,0x46,0x3a,0x0a,0x40,0x77,0x61,0x69,0x74,0x54,0x3a,0x0a,0x40,0x6c,0x69,0x73,0x74,0x5b,0x09,0x6f,0x3a,0x15,0x52,0x50,0x47,0x3a,0x3a,0x4d,0x6f,0x76,0x65,0x43,0x6f,0x6d,0x6d,0x61,0x6e,0x64,0x07,0x3a,0x0a,0x40,0x63,0x6f,0x64,0x65,0x69,0x2a,0x3a,0x10,0x40,0x70,0x61,0x72,0x61,0x6d,0x65,0x74,0x65,0x72,0x73,0x5b,0x00,0x6f,0x3b,0x0a,0x07,0x3b,0x0b,0x69,0x0f,0x3b,0x0c,0x5b,0x00,0x6f,0x3b,0x0a,0x07,0x3b,0x0b,0x69,0x2c,0x3b,0x0c,0x5b,0x00,0x6f,0x3b,0x0a,0x07,0x3b,0x0b,0x69,0x00,0x3b,0x0c,0x5b,0x00))
     355("add_actor_ex(567)")
     249(bytes(0x04,0x08,0x6f,0x3a,0x0c,0x52,0x50,0x47,0x3a,0x3a,0x4d,0x45,0x08,0x3a,0x0a,0x40,0x6e,0x61,0x6d,0x65,0x49,0x22,0x0c,0x66,0x61,0x6e,0x66,0x61,0x6c,0x65,0x06,0x3a,0x06,0x45,0x54,0x3a,0x0b,0x40,0x70,0x69,0x74,0x63,0x68,0x69,0x69,0x3a,0x0c,0x40,0x76,0x6f,0x6c,0x75,0x6d,0x65,0x69,0x69))
     ShowMessageFace("",0,0,2,4)
     ShowMessage("Panty Sensei joins the party!")
     Wait(60)
     EndEventProcessing()
     0()
    IfPlayerPicksChoice(1,null)
     ShowMessageFace("",0,0,2,5)
     ShowMessage("\\n<Panty Sensei>Is that so? I suppose I'll just keep working here...")
     0()
    404()
    0()
   EndIf()
   0()
  EndIf()
  If(0,2044,1)
   ShowMessageFace("",0,0,2,6)
   ShowMessage("\\n<Panty Sensei>I am the Panty Sensei. I live for panties. Do you like worn women's undergarments?")
   ShowChoices(strings("Yes","No"),2)
   IfPlayerPicksChoice(0,null)
    ShowMessageFace("",0,0,2,7)
    ShowMessage("\\n<Panty Sensei>Good, you're an honest man. I'll let you in on a secret then.")
    ShowMessageFace("",0,0,2,8)
    ShowMessage("\\n<Panty Sensei>With enough experience, the [Flirt] job can learn the [Shameless Theft] skill. With it, you can steal the panties right off a monster girl.")
    ShowMessageFace("",0,0,2,9)
    ShowMessage("\\n<Panty Sensei>Each species of monster girl has her own type of panties, although some don't wear any at all, of course...")
    ShowMessageFace("",0,0,2,10)
    ShowMessage("\\n<Panty Sensei>Try to collect panties from lots of monsters, and if you steal any rare ones, please let me have a look at them.")
    ChangeSwitch(2044,2044,0)
    EndEventProcessing()
    0()
   IfPlayerPicksChoice(1,null)
    ShowMessageFace("",0,0,2,11)
    ShowMessage("\\n<Panty Sensei>I have nothing to say to a man who lies to himself.")
    EndEventProcessing()
    0()
   404()
   0()
  EndIf()
  If(0,2044,0)
   If(0,4001,1)
    If(10,1801,false)
     ChangeSwitch(4001,4001,0)
     RunCommonEvent(325)
     ShowMessageFace("",0,0,2,12)
     ShowMessage("パンツ先生に「ネバネバパンツ」を見せた……")
     ShowMessageFace("",0,0,2,13)
     ShowMessage("\\n<Panty Sensei>ずいぶんヌルネバですね…… いえいえ、もちろん興奮しますよ。")
     ShowMessageFace("",0,0,2,14)
     ShowMessage("\\n<Panty Sensei>これはナメクジ娘のものですね。 このネバネバ感は、マニアを虜にします……")
     EndEventProcessing()
     0()
    EndIf()
    0()
   EndIf()
   If(0,4002,1)
    If(10,1802,false)
     ChangeSwitch(4002,4002,0)
     RunCommonEvent(325)
     ShowMessageFace("",0,0,2,15)
     ShowMessage("パンツ先生に「こあくまインプのパンツ」を見せた……")
     ShowMessageFace("",0,0,2,16)
     ShowMessage("\\n<Panty Sensei>おほっ、これはインプのパンツ…… うむ、小悪魔の香りがします。")
     ShowMessageFace("",0,0,2,17)
     ShowMessage("\\n<Panty Sensei>マニアにとっては初歩的な物ですが…… それでも、やはり良いものですね。")
     EndEventProcessing()
     0()
    EndIf()
    0()
   EndIf()
   If(0,4003,1)
    If(10,1803,false)
     ChangeSwitch(4003,4003,0)
     RunCommonEvent(325)
     ShowMessageFace("",0,0,2,18)
     ShowMessage("パンツ先生に「おどおどインプのパンツ」を見せた……")
     ShowMessageFace("",0,0,2,19)
     ShowMessage("\\n<Panty Sensei>何やら、おどおどしたパンツですね。 これは、インプのものでしょうか。")
     ShowMessageFace("",0,0,2,20)
     ShowMessage("\\n<Panty Sensei>わぁ、ちょっとオシッコの匂いがする～♪ びくびくしてるとき、少し漏らしたんだ～♪")
     ShowMessageFace("",0,0,2,21)
     ShowMessage("\\n<Panty Sensei>わぁいオモラシ。先生オモラシ大好き。 でも、大尉とは一緒にしないで下さいね……")
     EndEventProcessing()
     0()
    EndIf()
    0()
   EndIf()
   If(0,4004,1)
    If(10,1804,false)
     ChangeSwitch(4004,4004,0)
     RunCommonEvent(325)
     ShowMessageFace("",0,0,2,22)
     ShowMessage("パンツ先生に「ぐったりインプのパンツ」を見せた……")
     ShowMessageFace("",0,0,2,23)
     ShowMessage("\\n<Panty Sensei>これは、インプのパンツですね。 くんくん……")
     ShowMessageFace("",0,0,2,24)
     ShowMessage("\\n<Panty Sensei>くた～")
     ShowMessageFace("",0,0,2,25)
     ShowMessage("\\n<Panty Sensei>失礼、なんだかくたびれてしまいました。 これは、持ち主も相当くたびれていますね……")
     EndEventProcessing()
     0()
    EndIf()
    0()
   EndIf()
   If(0,4005,1)
    If(10,1805,false)
     ChangeSwitch(4005,4005,0)
     RunCommonEvent(325)
     ShowMessageFace("",0,0,2,26)
     ShowMessage("パンツ先生に「わんわんパンツ」を見せた……")
     ShowMessageFace("",0,0,2,27)
     ShowMessage("\\n<Panty Sensei>おや、犬の毛が…… これは、犬娘のもののようですね。")
     ShowMessageFace("",0,0,2,28)
     ShowMessage("\\n<Panty Sensei>獣娘はあんまりパンツを洗わないので…… 実にたぎります。")
     EndEventProcessing()
     0()
    EndIf()
    0()
   EndIf()
   If(0,4006,1)
    If(10,1806,false)
     ChangeSwitch(4006,4006,0)
     RunCommonEvent(325)
     ShowMessageFace("",0,0,2,29)
     ShowMessage("パンツ先生に「ゴブリンパンツ」を見せた……")
     ShowMessageFace("",0,0,2,30)
     ShowMessage("\\n<Panty Sensei>これは、巻き付けタイプですか…… どうやら、東洋のものですね。")
     ShowMessageFace("",0,0,2,31)
     ShowMessage("\\n<Panty Sensei>サイズからして、小鬼のパンツかと。 ああ、エキゾティックな香り……")
     EndEventProcessing()
     0()
    EndIf()
    0()
   EndIf()
   If(0,4007,1)
    If(10,1807,false)
     ChangeSwitch(4007,4007,0)
     RunCommonEvent(325)
     ShowMessageFace("",0,0,2,32)
     ShowMessage("パンツ先生に「こうもりパンツ」を見せた……")
     ShowMessageFace("",0,0,2,33)
     ShowMessage("\\n<Panty Sensei>これはまさか、吸血鬼の……！？ しかも××用、これはなかなかにレア物！")
     ShowMessageFace("",0,0,2,34)
     ShowMessage("\\n<Panty Sensei>ウヒャー、ちょっとオシッコ臭い！ あなた、実にいいモノを手に入れましたね！")
     EndEventProcessing()
     0()
    EndIf()
    0()
   EndIf()
   If(0,4008,1)
    If(10,1808,false)
     ChangeSwitch(4008,4008,0)
     RunCommonEvent(325)
     ShowMessageFace("",0,0,2,35)
     ShowMessage("パンツ先生に「ミニ竜の腰布」を見せた……")
     ShowMessageFace("",0,0,2,36)
     ShowMessage("\\n<Panty Sensei>これは腰布ですか…… まあ直に履くので、事実上の下着ですね。")
     ShowMessageFace("",0,0,2,37)
     ShowMessage("\\n<Panty Sensei>しかし、どこか雄々しい…… もしやこれは、竜の……！")
     EndEventProcessing()
     0()
    EndIf()
    0()
   EndIf()
   If(0,4009,1)
    If(10,1809,false)
     ChangeSwitch(4009,4009,0)
     RunCommonEvent(325)
     ShowMessageFace("",0,0,2,38)
     ShowMessage("パンツ先生に「ネズミ水玉パンツ」を見せた……")
     ShowMessageFace("",0,0,2,39)
     ShowMessage("\\n<Panty Sensei>なかなか、汚れていますね…… ほとんど洗っていないのでしょうか。")
     ShowMessageFace("",0,0,2,40)
     ShowMessage("\\n<Panty Sensei>いえいえ、それはそれで良いものですよ。 なんなら私がもらいますけれど？")
     EndEventProcessing()
     0()
    EndIf()
    0()
   EndIf()
   If(0,4010,1)
    If(10,1810,false)
     ChangeSwitch(4010,4010,0)
     RunCommonEvent(325)
     ShowMessageFace("",0,0,2,41)
     ShowMessage("パンツ先生に「フェニックスもふもふパンツ」を見せた……")
     ShowMessageFace("",0,0,2,42)
     ShowMessage("\\n<Panty Sensei>これは、可愛らしいパンツですね。 ふふふっ、大好物です……")
     ShowMessageFace("",0,0,2,43)
     ShowMessage("\\n<Panty Sensei>しかし、不死鳥の雄々しさが感じ取れます。 神秘的なパンツですね、これ食べたい。")
     EndEventProcessing()
     0()
    EndIf()
    0()
   EndIf()
   If(0,4011,1)
    If(10,1811,false)
     ChangeSwitch(4011,4011,0)
     RunCommonEvent(325)
     ShowMessageFace("",0,0,2,44)
     ShowMessage("パンツ先生に「ウサギ娘のショーツ」を見せた……")
     ShowMessageFace("",0,0,2,45)
     ShowMessage("\\n<Panty Sensei>ああ、これはセクシーな…… 私の脳裏に、バニーさんが浮かびました。")
     ShowMessageFace("",0,0,2,46)
     ShowMessage("\\n<Panty Sensei>ああ、セックスしたい…… バニーさんとセックスしたい……")
     EndEventProcessing()
     0()
    EndIf()
    0()
   EndIf()
   If(0,4012,1)
    If(10,1812,false)
     ChangeSwitch(4012,4012,0)
     RunCommonEvent(325)
     ShowMessageFace("",0,0,2,47)
     ShowMessage("パンツ先生に「羊娘の地味パンツ」を見せた……")
     ShowMessageFace("",0,0,2,48)
     ShowMessage("\\n<Panty Sensei>なかなか地味ですね……おや、羊毛が。 それに、ほんの僅かにお酒の匂いが……")
     ShowMessageFace("",0,0,2,49)
     ShowMessage("\\n<Panty Sensei>パンツを嗅いだだけでも、分かることは多いですよ。 持ち主の食習慣や体調、体質……その他色々です。")
     EndEventProcessing()
     0()
    EndIf()
    0()
   EndIf()
   If(0,4013,1)
    If(10,1813,false)
     ChangeSwitch(4013,4013,0)
     RunCommonEvent(325)
     ShowMessageFace("",0,0,2,50)
     ShowMessage("パンツ先生に「シェスタのパンツ」を見せた……")
     ShowMessageFace("",0,0,2,51)
     ShowMessage("\\n<Panty Sensei>これは、普通のパンツに思えます。 私の鼻も、特に反応はしませんが……")
     ShowMessageFace("",0,0,2,52)
     ShowMessage("\\n<Panty Sensei>しかし、私の本能は訴えかけています。 このパンツは、ひどく禍々しいものだと……")
     EndEventProcessing()
     0()
    EndIf()
    0()
   EndIf()
   If(0,4014,1)
    If(10,1814,false)
     ChangeSwitch(4014,4014,0)
     RunCommonEvent(325)
     ShowMessageFace("",0,0,2,53)
     ShowMessage("パンツ先生に「スズメ娘の羽毛パンツ」を見せた……")
     ShowMessageFace("",0,0,2,54)
     ShowMessage("\\n<Panty Sensei>おや、羽毛のパンツですか…… これは、持ち主の毛で出来ているようですね。")
     ShowMessageFace("",0,0,2,55)
     ShowMessage("\\n<Panty Sensei>ならば特定は容易、スズメ娘のものでしょう。 スズメちゅんちゅん！　ちゅんちゅん、ちゅん！")
     EndEventProcessing()
     0()
    EndIf()
    0()
   EndIf()
   If(0,4015,1)
    If(10,1815,false)
     ChangeSwitch(4015,4015,0)
     RunCommonEvent(325)
     ShowMessageFace("",0,0,2,56)
     ShowMessage("パンツ先生に「ナメクジ高級パンツ」を見せた……")
     ShowMessageFace("",0,0,2,57)
     ShowMessage("\\n<Panty Sensei>なかなかに高級なパンツですね。 しかし、粘液でネバネバ……")
     ShowMessageFace("",0,0,2,58)
     ShowMessage("\\n<Panty Sensei>ナメクジ系のモンスターはたまりませんね。 ナメクジパンツ専用のマニアもいるのですよ。")
     EndEventProcessing()
     0()
    EndIf()
    0()
   EndIf()
   If(0,4016,1)
    If(10,1816,false)
     ChangeSwitch(4016,4016,0)
     RunCommonEvent(325)
     ShowMessageFace("",0,0,2,59)
     ShowMessage("パンツ先生に「ナメクジシスターパンツ」を見せた……")
     ShowMessageFace("",0,0,2,60)
     ShowMessage("\\n<Panty Sensei>おほぉっ！　これはレア！ ナメクジシスターのパンツですね？")
     ShowMessageFace("",0,0,2,61)
     ShowMessage("\\n<Panty Sensei>この清楚さと、淫靡なネバネバのギャップ…… これくれ。")
     EndEventProcessing()
     0()
    EndIf()
    0()
   EndIf()
   If(0,4017,1)
    If(10,1817,false)
     ChangeSwitch(4017,4017,0)
     RunCommonEvent(325)
     ShowMessageFace("",0,0,2,62)
     ShowMessage("パンツ先生に「かぼちゃパンツ」を見せた……")
     ShowMessageFace("",0,0,2,63)
     ShowMessage("\\n<Panty Sensei>わぁぁ、おこさまパンツだ～！ ボク、これ大好物～！")
     ShowMessageFace("",0,0,2,64)
     ShowMessage("\\n<Panty Sensei>失礼、取り乱してしまいました。 大切にして下さいね。")
     EndEventProcessing()
     0()
    EndIf()
    0()
   EndIf()
   If(0,4018,1)
    If(10,1818,false)
     ChangeSwitch(4018,4018,0)
     RunCommonEvent(325)
     ShowMessageFace("",0,0,2,65)
     ShowMessage("パンツ先生に「ダークエルフショーツ」を見せた……")
     ShowMessageFace("",0,0,2,66)
     ShowMessage("\\n<Panty Sensei>凜としたパンツ……これは剣士のものですね。 それに、エルフ臭い……あははぁ！")
     ShowMessageFace("",0,0,2,67)
     ShowMessage("\\n<Panty Sensei>しかもこれ、闇堕ちしてますよね！ 私、闇堕ち大好物なんですよぉ！")
     EndEventProcessing()
     0()
    EndIf()
    0()
   EndIf()
   If(0,4019,1)
    If(10,1819,false)
     ChangeSwitch(4019,4019,0)
     RunCommonEvent(325)
     ShowMessageFace("",0,0,2,68)
     ShowMessage("パンツ先生に「ダークエルフパンツ」を見せた……")
     ShowMessageFace("",0,0,2,69)
     ShowMessage("\\n<Panty Sensei>おおっ、なかなかにこだわりのある逸品…… エルフの匂いと、魔導の匂いが混ざっていますね。")
     ShowMessageFace("",0,0,2,70)
     ShowMessage("\\n<Panty Sensei>それに森の香りも……あぁぁ…… たまらない。")
     EndEventProcessing()
     0()
    EndIf()
    0()
   EndIf()
   If(0,4020,1)
    If(10,1820,false)
     ChangeSwitch(4020,4020,0)
     RunCommonEvent(325)
     ShowMessageFace("",0,0,2,71)
     ShowMessage("パンツ先生に「妖精のミニミニパンツ」を見せた……")
     ShowMessageFace("",0,0,2,72)
     ShowMessage("\\n<Panty Sensei>ちっちゃ！ 妖精のパンツとは、またレアな！")
     ShowMessageFace("",0,0,2,73)
     ShowMessage("\\n<Panty Sensei>これ、一部に熱狂的なファンがいるのですよ。 だからちょうだい。")
     EndEventProcessing()
     0()
    EndIf()
    0()
   EndIf()
   If(0,4021,1)
    If(10,1821,false)
     ChangeSwitch(4021,4021,0)
     RunCommonEvent(325)
     ShowMessageFace("",0,0,2,74)
     ShowMessage("パンツ先生に「妖狐のひよこパンツ」を見せた……")
     ShowMessageFace("",0,0,2,75)
     ShowMessage("\\n<Panty Sensei>あぶらあげの匂い……♪ これは、狐のパンツですね。")
     ShowMessageFace("",0,0,2,76)
     ShowMessage("\\n<Panty Sensei>しかも、またずいぶんと若い…… ムヒヒッ！")
     EndEventProcessing()
     0()
    EndIf()
    0()
   EndIf()
   If(0,4022,1)
    If(10,1822,false)
     ChangeSwitch(4022,4022,0)
     RunCommonEvent(325)
     ShowMessageFace("",0,0,2,77)
     ShowMessage("パンツ先生に「かむろのパンツ」を見せた……")
     ShowMessageFace("",0,0,2,78)
     ShowMessage("\\n<Panty Sensei>お～ほっほっほぉ～ぅ。 ずいぶんおしとやかな狐の香り、だっなーッ！？")
     ShowMessageFace("",0,0,2,79)
     ShowMessage("\\n<Panty Sensei>失礼、思わず取り乱すほど良いモノです。 食べたい。")
     EndEventProcessing()
     0()
    EndIf()
    0()
   EndIf()
   If(0,4023,1)
    If(10,1823,false)
     ChangeSwitch(4023,4023,0)
     RunCommonEvent(325)
     ShowMessageFace("",0,0,2,80)
     ShowMessage("パンツ先生に「ミミックパンツ」を見せた……")
     ShowMessageFace("",0,0,2,81)
     ShowMessage("\\n<Panty Sensei>これはネバネバしていてデンジャラス…… しかも、あまり外気にさらされていませんね。")
     ShowMessageFace("",0,0,2,82)
     ShowMessage("\\n<Panty Sensei>分かりましたよ……これはミミックのものでしょう。 非常にレアな逸品なので、私に下さい。")
     EndEventProcessing()
     0()
    EndIf()
    0()
   EndIf()
   If(0,4024,1)
    If(10,1824,false)
     ChangeSwitch(4024,4024,0)
     RunCommonEvent(325)
     ShowMessageFace("",0,0,2,83)
     ShowMessage("パンツ先生に「モリガンパンツ」を見せた……")
     ShowMessageFace("",0,0,2,84)
     ShowMessage("\\n<Panty Sensei>ちょ……なにこれ！ ハァハァハァハァ……！")
     ShowMessageFace("",0,0,2,85)
     ShowMessage("\\n<Panty Sensei>く、下さい！ このパンツを私に下さい！！")
     ShowMessageFace("",0,0,2,86)
     ShowMessage("\\n<Panty Sensei>ねぇ～～、ちょ～～だい～～！ これ、ボクにちょ～～だいよ～～！")
     ShowMessageFace("",0,0,2,87)
     ShowMessage("\\n<Panty Sensei>……そうでしょうね。 これほどのパンツを他人に譲る者など存在しません。")
     ShowMessageFace("",0,0,2,88)
     ShowMessage("\\n<Panty Sensei>なんと素晴らしい宝を、あなたは手にしたのでしょう…… ああ、心の底から羨ましい……")
     EndEventProcessing()
     0()
    EndIf()
    0()
   EndIf()
   If(0,4025,1)
    If(10,1825,false)
     ChangeSwitch(4025,4025,0)
     RunCommonEvent(325)
     ShowMessageFace("",0,0,2,89)
     ShowMessage("パンツ先生に「257ページのパンツ」を見せた……")
     ShowMessageFace("",0,0,2,90)
     ShowMessage("\\n<Panty Sensei>文学少女のかほりがするー！ メガネっ子オーラ！！")
     ShowMessageFace("",0,0,2,91)
     ShowMessage("\\n<Panty Sensei>ああ、これ……これほしい！ サクラチル！")
     EndEventProcessing()
     0()
    EndIf()
    0()
   EndIf()
   If(0,4026,1)
    If(10,1826,false)
     ChangeSwitch(4026,4026,0)
     RunCommonEvent(325)
     ShowMessageFace("",0,0,2,92)
     ShowMessage("パンツ先生に「65537ページのパンツ」を見せた……")
     ShowMessageFace("",0,0,2,93)
     ShowMessage("\\n<Panty Sensei>これは、ずいぶん派手ですが…… しかし、私の目は誤魔化せませんよ！")
     ShowMessageFace("",0,0,2,94)
     ShowMessage("\\n<Panty Sensei>持ち主は奥ゆかしい女性と見ました。 この匂い……長い間、図書館にいたようですね。")
     ShowMessageFace("",0,0,2,95)
     ShowMessage("\\n<Panty Sensei>……分かりましたよ、司書さんですね。 これ萌えるわ……")
     EndEventProcessing()
     0()
    EndIf()
    0()
   EndIf()
   If(0,4027,1)
    If(10,1827,false)
     ChangeSwitch(4027,4027,0)
     RunCommonEvent(325)
     ShowMessageFace("",0,0,2,96)
     ShowMessage("パンツ先生に「シスキュバスのパンツ」を見せた……")
     ShowMessageFace("",0,0,2,97)
     ShowMessage("\\n<Panty Sensei>いやらしい！ この娘、ほんまいやらしい！")
     ShowMessageFace("",0,0,2,98)
     ShowMessage("\\n<Panty Sensei>みなまで言わんでいい！ 言わんでもわかるって！")
     EndEventProcessing()
     0()
    EndIf()
    0()
   EndIf()
   If(0,4028,1)
    If(10,1828,false)
     ChangeSwitch(4028,4028,0)
     RunCommonEvent(325)
     ShowMessageFace("",0,0,2,99)
     ShowMessage("パンツ先生に「アリクイパンツ」を見せた……")
     ShowMessageFace("",0,0,2,100)
     ShowMessage("\\n<Panty Sensei>これは、アリクイ娘のものでしょう？ 人間の服を好んで着る魔物で、マニアには有名なのです。")
     ShowMessageFace("",0,0,2,101)
     ShowMessage("\\n<Panty Sensei>パンツなめなめ、パンツなめなめ…… ……やりませんよ、やりたいけど。")
     EndEventProcessing()
     0()
    EndIf()
    0()
   EndIf()
   If(0,4029,1)
    If(10,1829,false)
     ChangeSwitch(4029,4029,0)
     RunCommonEvent(325)
     ShowMessageFace("",0,0,2,102)
     ShowMessage("パンツ先生に「ゴーストパンツ」を見せた……")
     ShowMessageFace("",0,0,2,103)
     ShowMessage("\\n<Panty Sensei>これは……現世のものでしょうか？ まるで、この世のものではないような……")
     ShowMessageFace("",0,0,2,104)
     ShowMessage("\\n<Panty Sensei>分かりました、ゴーストのパンツですね。 なかなかレアです、どうか大切に……")
     EndEventProcessing()
     0()
    EndIf()
    0()
   EndIf()
   If(0,4030,1)
    If(10,1830,false)
     ChangeSwitch(4030,4030,0)
     RunCommonEvent(325)
     ShowMessageFace("",0,0,2,105)
     ShowMessage("パンツ先生に「ドールパンツ」を見せた……")
     ShowMessageFace("",0,0,2,106)
     ShowMessage("\\n<Panty Sensei>これ、かわいい！ ほしいな～！")
     ShowMessageFace("",0,0,2,107)
     ShowMessage("\\n<Panty Sensei>……可愛く言ってみましたが、ダメですか？ ダメですね……分かっていますよ、でも下さい。")
     EndEventProcessing()
     0()
    EndIf()
    0()
   EndIf()
   If(0,4031,1)
    If(10,1831,false)
     ChangeSwitch(4031,4031,0)
     RunCommonEvent(325)
     ShowMessageFace("",0,0,2,108)
     ShowMessage("パンツ先生に「ゾンビ剣士のパンツ」を見せた……")
     ShowMessageFace("",0,0,2,109)
     ShowMessage("\\n<Panty Sensei>これは……ゾンビのパンツですね。 匂いで簡単に分かりますよ。")
     ShowMessageFace("",0,0,2,110)
     ShowMessage("\\n<Panty Sensei>これは……剣士タイプですか。 うむ、なかなかに通好み……")
     EndEventProcessing()
     0()
    EndIf()
    0()
   EndIf()
   If(0,4032,1)
    If(10,1832,false)
     ChangeSwitch(4032,4032,0)
     RunCommonEvent(325)
     ShowMessageFace("",0,0,2,111)
     ShowMessage("パンツ先生に「ゾンビ娘のギリギリパンツ」を見せた……")
     ShowMessageFace("",0,0,2,112)
     ShowMessage("\\n<Panty Sensei>これは……ゾンビのパンツですね。 匂いで簡単に分かりますよ。")
     ShowMessageFace("",0,0,2,113)
     ShowMessage("\\n<Panty Sensei>なかなかきわどい色彩ですが…… バイオハザードの危険性はありませんよね？")
     EndEventProcessing()
     0()
    EndIf()
    0()
   EndIf()
   If(0,4033,1)
    If(10,1833,false)
     ChangeSwitch(4033,4033,0)
     RunCommonEvent(325)
     ShowMessageFace("",0,0,2,114)
     ShowMessage("パンツ先生に「ゾンビ娘の黒パンツ」を見せた……")
     ShowMessageFace("",0,0,2,115)
     ShowMessage("\\n<Panty Sensei>これは……ゾンビのパンツですね。 匂いで簡単に分かりますよ。")
     ShowMessageFace("",0,0,2,116)
     ShowMessage("\\n<Panty Sensei>なかなかシックな色彩が良品ですが…… バイオハザードの危険性はありませんよね？")
     EndEventProcessing()
     0()
    EndIf()
    0()
   EndIf()
   If(0,4034,1)
    If(10,1834,false)
     ChangeSwitch(4034,4034,0)
     RunCommonEvent(325)
     ShowMessageFace("",0,0,2,117)
     ShowMessage("パンツ先生に「ゾンビ娘の赤パンツ」を見せた……")
     ShowMessageFace("",0,0,2,118)
     ShowMessage("\\n<Panty Sensei>これは……ゾンビのパンツですね。 匂いで簡単に分かりますよ。")
     ShowMessageFace("",0,0,2,119)
     ShowMessage("\\n<Panty Sensei>なかなか派手で、生きていた頃の性格が偲ばれますが…… バイオハザードの危険性はありませんよね？")
     EndEventProcessing()
     0()
    EndIf()
    0()
   EndIf()
   If(0,4035,1)
    If(10,1835,false)
     ChangeSwitch(4035,4035,0)
     RunCommonEvent(325)
     ShowMessageFace("",0,0,2,120)
     ShowMessage("パンツ先生に「ゾンビエルフのパンツ」を見せた……")
     ShowMessageFace("",0,0,2,121)
     ShowMessage("\\n<Panty Sensei>これは……ゾンビの匂いとエルフの匂いが混じっていますね。 複合型とは、なんと珍しい……")
     ShowMessageFace("",0,0,2,122)
     ShowMessage("\\n<Panty Sensei>これ、オークションに出してみませんか？ きっと話題になる事でしょう……")
     EndEventProcessing()
     0()
    EndIf()
    0()
   EndIf()
   If(0,4036,1)
    If(10,1836,false)
     ChangeSwitch(4036,4036,0)
     RunCommonEvent(325)
     ShowMessageFace("",0,0,2,123)
     ShowMessage("パンツ先生に「フレデリカのパンツ」を見せた……")
     ShowMessageFace("",0,0,2,124)
     ShowMessage("\\n<Panty Sensei>これは、ゾンビのものですね…… しかし、なんとデンジャラスな匂い……")
     ShowMessageFace("",0,0,2,125)
     ShowMessage("\\n<Panty Sensei>嗅いでいると、こちらまでゾンビになってしまいそうです。 かゆい……うま……")
     EndEventProcessing()
     0()
    EndIf()
    0()
   EndIf()
   If(0,4037,1)
    If(10,1837,false)
     ChangeSwitch(4037,4037,0)
     RunCommonEvent(325)
     ShowMessageFace("",0,0,2,126)
     ShowMessage("パンツ先生に「クロムちゃんパンツ」を見せた……")
     ShowMessageFace("",0,0,2,127)
     ShowMessage("\\n<Panty Sensei>あれ～？　この子、お風呂キライかなぁ～？ ばっちぃパンツ、わるいこわるいこ……♪")
     ShowMessageFace("",0,0,2,128)
     ShowMessage("\\n<Panty Sensei>……いや、何かが違う！ 惑わされてはいけません！")
     ShowMessageFace("",0,0,2,129)
     ShowMessage("\\n<Panty Sensei>ロリータと思いきや、ババアだ！　百歳超えだ！ でも全然OKですよ、ロリババァ祭り。")
     EndEventProcessing()
     0()
    EndIf()
    0()
   EndIf()
   If(0,4038,1)
    If(10,1838,false)
     ChangeSwitch(4038,4038,0)
     RunCommonEvent(325)
     ShowMessageFace("",0,0,2,130)
     ShowMessage("パンツ先生に「エルフのパンツ」を見せた……")
     ShowMessageFace("",0,0,2,131)
     ShowMessage("\\n<Panty Sensei>ウヒャー！　清純エルフのパンツだぁ！ たまんねぇや、ウヘヘ……")
     ShowMessageFace("",0,0,2,132)
     ShowMessage("\\n<Panty Sensei>……でも、私の目はごまかせませんよ。 このパンツの持ち主は、淫乱ですね。")
     ShowMessageFace("",0,0,2,133)
     ShowMessage("\\n<Panty Sensei>清純エルフが淫乱とか、マジたまんねえや。 ボクのミルク工場、爆発しそう。")
     EndEventProcessing()
     0()
    EndIf()
    0()
   EndIf()
   If(0,4039,1)
    If(10,1839,false)
     ChangeSwitch(4039,4039,0)
     RunCommonEvent(325)
     ShowMessageFace("",0,0,2,134)
     ShowMessage("パンツ先生に「ブラウニーズミニパンツ」を見せた……")
     ShowMessageFace("",0,0,2,135)
     ShowMessage("\\n<Panty Sensei>おそろい！　かわいい！ どうやら土精のものですね。")
     ShowMessageFace("",0,0,2,136)
     ShowMessage("\\n<Panty Sensei>ちょうど2つありますし、あなたと私で半分こしませんか？ ダメですか……なら両方下さい。")
     EndEventProcessing()
     0()
    EndIf()
    0()
   EndIf()
   If(0,4040,1)
    If(10,1840,false)
     ChangeSwitch(4040,4040,0)
     RunCommonEvent(325)
     ShowMessageFace("",0,0,2,137)
     ShowMessage("パンツ先生に「双子妖精のミニミニパンツ」を見せた……")
     ShowMessageFace("",0,0,2,138)
     ShowMessage("\\n<Panty Sensei>おそろい！　かわいい！ どうやら風精のものですね。")
     ShowMessageFace("",0,0,2,139)
     ShowMessage("\\n<Panty Sensei>2つあるんだから、1つは私に下さい。 ダメですか……呪われろ。")
     EndEventProcessing()
     0()
    EndIf()
    0()
   EndIf()
   If(0,4041,1)
    If(10,1841,false)
     ChangeSwitch(4041,4041,0)
     RunCommonEvent(325)
     ShowMessageFace("",0,0,2,140)
     ShowMessage("パンツ先生に「妖精達のミニミニパンツ」を見せた……")
     ShowMessageFace("",0,0,2,141)
     ShowMessage("\\n<Panty Sensei>ちっちゃいの、いっぱい！　超カワイ～♪ これ、ひとつくらい盗ってもバレないかな？")
     ShowMessageFace("",0,0,2,142)
     ShowMessage("\\n<Panty Sensei>……やだなぁ、そんな事しませんよ。 多分しないと思います。")
     ShowMessageFace("",0,0,2,143)
     ShowMessage("\\n<Panty Sensei>しないんじゃないかな？ ま、ちょっと覚悟はしておけ。")
     EndEventProcessing()
     0()
    EndIf()
    0()
   EndIf()
   If(0,4042,1)
    If(10,1842,false)
     ChangeSwitch(4042,4042,0)
     RunCommonEvent(325)
     ShowMessageFace("",0,0,2,144)
     ShowMessage("パンツ先生に「シルフパンツ」を見せた……")
     ShowMessageFace("",0,0,2,145)
     ShowMessage("\\n<Panty Sensei>これは……風の力を感じます！ 吹き荒れる暴風のエネルギー、そして風の囁き……")
     ShowMessageFace("",0,0,2,146)
     ShowMessage("\\n<Panty Sensei>もう、頭の中がちぃぱっぱ！ パンツといっしょにちぃぱっぱ！")
     EndEventProcessing()
     0()
    EndIf()
    0()
   EndIf()
   If(0,4043,1)
    If(10,1843,false)
     ChangeSwitch(4043,4043,0)
     RunCommonEvent(325)
     ShowMessageFace("",0,0,2,147)
     ShowMessage("パンツ先生に「ミノタウロスパンツ」を見せた……")
     ShowMessageFace("",0,0,2,148)
     ShowMessage("\\n<Panty Sensei>なんと荒々しい…… 持ち主のパワーがパンツからも伝わっているようです。")
     ShowMessageFace("",0,0,2,149)
     ShowMessage("\\n<Panty Sensei>言うなれば、体の奥底から沸き起こる憤怒の力…… 私のチンコもたぎります。")
     EndEventProcessing()
     0()
    EndIf()
    0()
   EndIf()
   If(0,4044,1)
    If(10,1844,false)
     ChangeSwitch(4044,4044,0)
     RunCommonEvent(325)
     ShowMessageFace("",0,0,2,150)
     ShowMessage("パンツ先生に「エヴァパンツ」を見せた……")
     ShowMessageFace("",0,0,2,151)
     ShowMessage("\\n<Panty Sensei>ああっ、これいい……！ ビンビンくる！　すっごくいい！")
     ShowMessageFace("",0,0,2,152)
     ShowMessage("\\n<Panty Sensei>持ち主は貧しい暮らしをしているのでしょう！ このパンツを売ればよかったのに……！")
     ShowMessageFace("",0,0,2,153)
     ShowMessage("\\n<Panty Sensei>あっ、くる！　白いマグマが噴火しちゃう！ みんな逃げて、ボク噴火しちゃう！")
     EndEventProcessing()
     0()
    EndIf()
    0()
   EndIf()
   If(0,4045,1)
    If(10,1845,false)
     ChangeSwitch(4045,4045,0)
     RunCommonEvent(325)
     ShowMessageFace("",0,0,2,154)
     ShowMessage("パンツ先生に「アスタロトパンツ」を見せた……")
     ShowMessageFace("",0,0,2,155)
     ShowMessage("\\n<Panty Sensei>こ、このパンツは……しゅごい……！ はぁ、はぁはぁはぁはぁはぁ……")
     RunCommonEvent(104)
     RunCommonEvent(105)
     ShowMessageFace("",0,0,2,156)
     ShowMessage("\\n<Panty Sensei>あ、ああっ…… ……ちょっと出ちゃった。")
     ShowMessageFace("",0,0,2,157)
     ShowMessage("\\n<Panty Sensei>……わぁっ、ちょっとじゃないや！ ボクのパンツ、ザーメンべっとり！")
     ShowMessageFace("",0,0,2,158)
     ShowMessage("\\n<Panty Sensei>……私のザーメンパンツと、このパンツを交換しませんか？")
     EndEventProcessing()
     0()
    EndIf()
    0()
   EndIf()
   If(0,4046,1)
    If(10,1846,false)
     ChangeSwitch(4046,4046,0)
     RunCommonEvent(325)
     ShowMessageFace("",0,0,2,159)
     ShowMessage("パンツ先生に「アイドルパンツ」を見せた……")
     ShowMessageFace("",0,0,2,160)
     ShowMessage("\\n<Panty Sensei>ちょ……これ！　 ダメだよ、こんなの持ってきちゃ！")
     ShowMessageFace("",0,0,2,161)
     ShowMessage("\\n<Panty Sensei>私の理性が保てなくなる！ もう精神ブッ壊れそう！")
     ShowMessageFace("",0,0,2,162)
     ShowMessage("\\n<Panty Sensei>股間が……勝手に……うわあああ！")
     RunCommonEvent(104)
     RunCommonEvent(105)
     ShowMessageFace("",0,0,2,163)
     ShowMessage("\\n<Panty Sensei>……ふぅ。 サキちゃん、キラッ☆")
     EndEventProcessing()
     0()
    EndIf()
    0()
   EndIf()
   If(0,4047,1)
    If(10,1847,false)
     ChangeSwitch(4047,4047,0)
     RunCommonEvent(325)
     ShowMessageFace("",0,0,2,164)
     ShowMessage("パンツ先生に「デビルファイターパンツ」を見せた……")
     ShowMessageFace("",0,0,2,165)
     ShowMessage("\\n<Panty Sensei>ああ、これいいですね…… 恥じらいと雄々しさが混在したパンツです。")
     ShowMessageFace("",0,0,2,166)
     ShowMessage("\\n<Panty Sensei>頭にかぶりたい…… そして、世界中を練り歩きたい……")
     EndEventProcessing()
     0()
    EndIf()
    0()
   EndIf()
   If(0,4048,1)
    If(10,1848,false)
     ChangeSwitch(4048,4048,0)
     RunCommonEvent(325)
     ShowMessageFace("",0,0,2,167)
     ShowMessage("パンツ先生に「村娘のパンツ」を見せた……")
     ShowMessageFace("",0,0,2,168)
     ShowMessage("\\n<Panty Sensei>これは純朴なパンツですね。 おや、わずかに魔導の香りが……")
     ShowMessageFace("",0,0,2,169)
     ShowMessage("\\n<Panty Sensei>それもまた、生の芳香を際立たせるスパイス。 ちんちんから白いウミ出そう。")
     EndEventProcessing()
     0()
    EndIf()
    0()
   EndIf()
   If(0,4049,1)
    If(10,1849,false)
     ChangeSwitch(4049,4049,0)
     RunCommonEvent(325)
     ShowMessageFace("",0,0,2,170)
     ShowMessage("パンツ先生に「リリィのロイヤルパンツ」を見せた……")
     ShowMessageFace("",0,0,2,171)
     ShowMessage("\\n<Panty Sensei>ずいぶん、魔導の香りが濃いですね。 それに、これは……")
     ShowMessageFace("",0,0,2,172)
     ShowMessage("\\n<Panty Sensei>……いえ、つまらぬ詮索は興を削ぎますね。 悲しいパンツです……")
     EndEventProcessing()
     0()
    EndIf()
    0()
   EndIf()
   If(0,4050,1)
    If(10,1850,false)
     ChangeSwitch(4050,4050,0)
     RunCommonEvent(325)
     ShowMessageFace("",0,0,2,173)
     ShowMessage("パンツ先生に「小鬼のふんどし」を見せた……")
     ShowMessageFace("",0,0,2,174)
     ShowMessage("\\n<Panty Sensei>おお、ふんどしだ！ それもミニマムサイズ、××用！")
     ShowMessageFace("",0,0,2,175)
     ShowMessage("\\n<Panty Sensei>ウヒャー！　たぎってきた！ パンツワッショイ！　おみこしワッショイ！")
     EndEventProcessing()
     0()
    EndIf()
    0()
   EndIf()
   If(0,4051,1)
    If(10,1851,false)
     ChangeSwitch(4051,4051,0)
     RunCommonEvent(325)
     ShowMessageFace("",0,0,2,176)
     ShowMessage("パンツ先生に「ナーキュバスのパンツ」を見せた……")
     ShowMessageFace("",0,0,2,177)
     ShowMessage("\\n<Panty Sensei>あははぁ、看護婦さんだぁ…… これいい、すっごくいい……")
     ShowMessageFace("",0,0,2,178)
     ShowMessage("\\n<Panty Sensei>ちょ、何これ……！ ボクのおちんちんが腫れちゃったよぉ！")
     ShowMessageFace("",0,0,2,179)
     ShowMessage("\\n<Panty Sensei>診察して！　看護婦さん、おちんちん診察して！ あぁぁぁぁ――！！")
     RunCommonEvent(104)
     RunCommonEvent(105)
     ShowMessageFace("",0,0,2,180)
     ShowMessage("\\n<Panty Sensei>……ふぅ。 失礼、つい昂ぶってしまいました。")
     EndEventProcessing()
     0()
    EndIf()
    0()
   EndIf()
   If(0,4052,1)
    If(10,1852,false)
     ChangeSwitch(4052,4052,0)
     RunCommonEvent(325)
     ShowMessageFace("",0,0,2,181)
     ShowMessage("パンツ先生に「百々目鬼の腰布」を見せた……")
     ShowMessageFace("",0,0,2,182)
     ShowMessage("\\n<Panty Sensei>腰布ですか、なかなかに面妖な。 しかも、あやかしの香り……")
     ShowMessageFace("",0,0,2,183)
     ShowMessage("\\n<Panty Sensei>ああ、見られてる感じがする！ 分かった！　目の妖怪だ、これ！")
     EndEventProcessing()
     0()
    EndIf()
    0()
   EndIf()
   If(0,4053,1)
    If(10,1853,false)
     ChangeSwitch(4053,4053,0)
     RunCommonEvent(325)
     ShowMessageFace("",0,0,2,184)
     ShowMessage("パンツ先生に「盗賊竜のスポーツパンツ」を見せた……")
     ShowMessageFace("",0,0,2,185)
     ShowMessage("\\n<Panty Sensei>ドラゴン臭い……たまらない…… しかも持ち主は、盗賊生活を送っていますね。")
     ShowMessageFace("",0,0,2,186)
     ShowMessage("\\n<Panty Sensei>ならば、このパンツを盗んでもいいという事。 つまり私のものです。")
     EndEventProcessing()
     0()
    EndIf()
    0()
   EndIf()
   If(0,4054,1)
    If(10,1854,false)
     ChangeSwitch(4054,4054,0)
     RunCommonEvent(325)
     ShowMessageFace("",0,0,2,187)
     ShowMessage("パンツ先生に「盗賊竜のブランドパンツ」を見せた……")
     ShowMessageFace("",0,0,2,188)
     ShowMessage("\\n<Panty Sensei>ドラゴン臭い……たまらない…… ああ、派手な下着に染み付いたドラゴン臭……")
     ShowMessageFace("",0,0,2,189)
     ShowMessage("\\n<Panty Sensei>これは実にレアですね、私が保証します。 この勃起したチンコが保証書代わりです。")
     EndEventProcessing()
     0()
    EndIf()
    0()
   EndIf()
   If(0,4055,1)
    If(10,1855,false)
     ChangeSwitch(4055,4055,0)
     RunCommonEvent(325)
     ShowMessageFace("",0,0,2,190)
     ShowMessage("パンツ先生に「盗賊竜のサポートパンツ」を見せた……")
     ShowMessageFace("",0,0,2,191)
     ShowMessage("\\n<Panty Sensei>ドラゴンの……これ、ああ…… 汗も染み込んでる……すごいや、実にいい……")
     ShowMessageFace("",0,0,2,192)
     ShowMessage("\\n<Panty Sensei>虜になりそうですね、我慢汁が止まりません。 ボクのパンツも、もうヌルヌルです。")
     EndEventProcessing()
     0()
    EndIf()
    0()
   EndIf()
   If(0,4056,1)
    If(10,1856,false)
     ChangeSwitch(4056,4056,0)
     RunCommonEvent(325)
     ShowMessageFace("",0,0,2,193)
     ShowMessage("パンツ先生に「蜃気楼のひよこパンツ」を見せた……")
     ShowMessageFace("",0,0,2,194)
     ShowMessage("\\n<Panty Sensei>これは、なんと儚い蜃気楼…… 陽気ながら、どこか虚ろなパンツです。")
     ShowMessageFace("",0,0,2,195)
     ShowMessage("\\n<Panty Sensei>ところで、あなたは知っていますか？ 人の夢と書いて、儚いと読むのですよ……")
     ShowMessageFace("",0,0,2,196)
     ShowMessage("\\n<Panty Sensei>いえ……べ、別に他人の受け売りでは……")
     EndEventProcessing()
     0()
    EndIf()
    0()
   EndIf()
   If(0,4057,1)
    If(10,1857,false)
     ChangeSwitch(4057,4057,0)
     RunCommonEvent(325)
     ShowMessageFace("",0,0,2,197)
     ShowMessage("パンツ先生に「ノームパンツ」を見せた……")
     ShowMessageFace("",0,0,2,198)
     ShowMessage("\\n<Panty Sensei>パンツはともだち…… こわくないよ……")
     ShowMessageFace("",0,0,2,199)
     ShowMessage("\\n<Panty Sensei>ああ、大地を感じる…… 力が……大地から湧き出る力が……")
     RunCommonEvent(104)
     RunCommonEvent(105)
     ShowMessageFace("",0,0,2,200)
     ShowMessage("\\n<Panty Sensei>おっと失礼、別のものが湧き上がってしまいました。")
     EndEventProcessing()
     0()
    EndIf()
    0()
   EndIf()
   If(0,4058,1)
    If(10,1858,false)
     ChangeSwitch(4058,4058,0)
     RunCommonEvent(325)
     ShowMessageFace("",0,0,2,201)
     ShowMessage("パンツ先生に「絵画のパンツ」を見せた……")
     ShowMessageFace("",0,0,2,202)
     ShowMessage("\\n<Panty Sensei>こ！　これは……！ 芸術は爆発だ――！！")
     RunCommonEvent(104)
     RunCommonEvent(105)
     ShowMessageFace("",0,0,2,203)
     ShowMessage("\\n<Panty Sensei>失礼、チンコも爆発してしまいました。 しぶきはかかりませんでしたか？")
     ShowChoices(strings("はい","いいえ"),0)
     IfPlayerPicksChoice(0,null)
      ShowMessageFace("",0,0,2,204)
      ShowMessage("\\n<Panty Sensei>そうですか、良かった……")
      0()
     IfPlayerPicksChoice(1,null)
      ShowMessageFace("",0,0,2,205)
      ShowMessage("\\n<Panty Sensei>うひゃひゃ、勇者に顔射しちゃった！")
      0()
     404()
     EndEventProcessing()
     0()
    EndIf()
    0()
   EndIf()
   If(0,4124,1)
    If(10,1924,false)
     ChangeSwitch(4124,4124,0)
     RunCommonEvent(325)
     ShowMessageFace("",0,0,2,206)
     ShowMessage("パンツ先生に「ソニアパンツ」を見せた……")
     ShowMessageFace("",0,0,2,207)
     ShowMessage("\\n<Panty Sensei>ほほう、これはこれは…… 田舎娘が、がんばってオシャレしたような……")
     ShowMessageFace(binary"",0,0,2,208)
     ShowMessage("\\n<Panty Sensei>ああ、たまらない…… 幼馴染み、はぁはぁ……")
     ShowMessageFace("",0,0,2,209)
     ShowMessage("\\n<Panty Sensei>ハァハァハァ…… アッ！　イクーーッ！！")
     RunCommonEvent(104)
     RunCommonEvent(105)
     ShowMessageFace("",0,0,2,210)
     ShowMessage("\\n<Panty Sensei>幼馴染みの思い出を、ミルクで汚してしまいました。 そして私は潰される。")
     EndEventProcessing()
     0()
    EndIf()
    0()
   EndIf()
   If(0,4153,1)
    If(10,1953,false)
     ChangeSwitch(4153,4153,0)
     RunCommonEvent(325)
     ShowMessageFace("",0,0,2,211)
     ShowMessage("パンツ先生に「魔王のパンツ」を見せた……")
     ShowMessageFace("",0,0,2,212)
     ShowMessage("\\n<Panty Sensei>こ、これは…… なんでしょう、手が震えてしまいます……")
     ShowMessageFace("",0,0,2,213)
     ShowMessage("\\n<Panty Sensei>では、匂いを…… くんくんくん……")
     ShowMessageFace("",0,0,2,214)
     ShowMessage("\\n<Panty Sensei>あっ！　ちょ、これダメ……！")
     RunCommonEvent(104)
     RunCommonEvent(105)
     ShowMessageFace("",0,0,2,215)
     ShowMessage("\\n<Panty Sensei>も、漏れちゃったぁ…… こんなの、はじめてだよぉ……")
     ShowMessageFace("",0,0,2,216)
     ShowMessage("\\n<Panty Sensei>あっ、また来る…… 匂い嗅いでるだけで、こんな……")
     RunCommonEvent(104)
     RunCommonEvent(105)
     ShowMessageFace("",0,0,2,217)
     ShowMessage("\\n<Panty Sensei>あひぃ、まだまだ出ちゃう……！！")
     RunCommonEvent(104)
     RunCommonEvent(105)
     ShowMessageFace("",0,0,2,218)
     ShowMessage("\\n<Panty Sensei>なにこれ、止まらないよぉ！！")
     RunCommonEvent(104)
     RunCommonEvent(105)
     ShowMessageFace("",0,0,2,219)
     ShowMessage("\\n<Panty Sensei>らめぇ、死んじゃうぅぅぅ……！")
     RunCommonEvent(104)
     RunCommonEvent(105)
     ShowMessageFace("",0,0,2,220)
     ShowMessage("\\n<Panty Sensei>こ、これは危険です…… 人類が手にするには、早すぎる……！")
     RunCommonEvent(104)
     RunCommonEvent(105)
     ShowMessageFace("",0,0,2,221)
     ShowMessage("\\n<Panty Sensei>……ぐふっ！")
     TemporaryRemoveEvent()
     ShowMessageFace("",0,0,2,222)
     ShowMessage("パンツ先生は力尽きた……")
     355("gain_medal(2039)")
     ChangeSwitch(2121,2121,0)
     EndEventProcessing()
     0()
    EndIf()
    0()
   EndIf()
   If(0,4154,1)
    If(10,1954,false)
     ChangeSwitch(4154,4154,0)
     RunCommonEvent(325)
     ShowMessageFace("",0,0,2,223)
     ShowMessage("パンツ先生に「死神のパンツ」を見せた……")
     ShowMessageFace("",0,0,2,224)
     ShowMessage("\\n<Panty Sensei>え、なんですか……？ 特に何もありませんが……")
     ShowMessageFace("",0,0,2,225)
     ShowMessage("\\n<Panty Sensei>もしや「馬鹿には見えないパンツ」とかいうネタですか？ え？　ここに死神のパンツがある……？")
     ShowMessageFace("",0,0,2,226)
     ShowMessage("\\n<Panty Sensei>……頭の病院に行かれてはいかがですか？ 大丈夫、ここの住民達はみな常連です。")
     EndEventProcessing()
     0()
    EndIf()
    0()
   EndIf()
   If(0,4155,1)
    If(10,1955,false)
     ChangeSwitch(4155,4155,0)
     RunCommonEvent(325)
     ShowMessageFace("",0,0,2,227)
     ShowMessage("パンツ先生に「ミカエラのパンツ」を見せた……")
     ShowMessageFace("",0,0,2,228)
     ShowMessage("\\n<Panty Sensei>こっ、これは……！ なんと、なんというものを……！！")
     ShowMessageFace("",0,0,2,229)
     ShowMessage("\\n<Panty Sensei>ああ、神々しい…… まるで天にも昇るようだ……")
     RunCommonEvent(104)
     RunCommonEvent(105)
     ShowMessageFace("",0,0,2,230)
     ShowMessage("\\n<Panty Sensei>ああ、ドクドク出ちゃってる…… このパンツが、ボクの心とミルク工場を狂わせる……")
     RunCommonEvent(104)
     RunCommonEvent(105)
     ShowMessageFace("",0,0,2,231)
     ShowMessage("\\n<Panty Sensei>らめぇ……いっぱい漏れちゃうよぉ……")
     RunCommonEvent(104)
     RunCommonEvent(105)
     ShowMessageFace("",0,0,2,232)
     ShowMessage("\\n<Panty Sensei>あひぃ……天に昇っちゃう……")
     RunCommonEvent(104)
     RunCommonEvent(105)
     ShowMessageFace("",0,0,2,233)
     ShowMessage("\\n<Panty Sensei>至高のパンツに導かれ、私は天国に…… あ、あひぃ……！")
     RunCommonEvent(104)
     RunCommonEvent(105)
     ShowMessageFace("",0,0,2,234)
     ShowMessage("\\n<Panty Sensei>……ぐふっ！")
     TemporaryRemoveEvent()
     ShowMessageFace("",0,0,2,235)
     ShowMessage("パンツ先生は力尽きた……")
     355("gain_medal(2039)")
     ChangeSwitch(2121,2121,0)
     EndEventProcessing()
     0()
    EndIf()
    0()
   EndIf()
   If(0,4156,1)
    If(10,1956,false)
     ChangeSwitch(4156,4156,0)
     RunCommonEvent(325)
     ShowMessageFace(binary"",0,0,2,236)
     ShowMessage("パンツ先生に「ルシフィナのパンツ」を見せた……")
     ShowMessageFace("",0,0,2,237)
     ShowMessage("\\n<Panty Sensei>こっ、これは……！ なんと、なんというものを……！！")
     ShowMessageFace("",0,0,2,238)
     ShowMessage("\\n<Panty Sensei>ああ、神々しい…… まるで天にも昇るようだ……")
     RunCommonEvent(104)
     RunCommonEvent(105)
     ShowMessageFace("",0,0,2,239)
     ShowMessage("\\n<Panty Sensei>ああ、出ちゃった…… あれ？　ボクのミルク工場が大稼動……")
     RunCommonEvent(104)
     RunCommonEvent(105)
     ShowMessageFace("",0,0,2,240)
     ShowMessage("\\n<Panty Sensei>なにこれ！？　あーっ！？")
     RunCommonEvent(104)
     RunCommonEvent(105)
     ShowMessageFace("",0,0,2,241)
     ShowMessage("\\n<Panty Sensei>あひぃぃぃぃぃ……！！")
     RunCommonEvent(104)
     RunCommonEvent(105)
     ShowMessageFace("",0,0,2,242)
     ShowMessage("\\n<Panty Sensei>こ、これは…… 天使のパンツに見せかけて……悪魔の……")
     RunCommonEvent(104)
     RunCommonEvent(105)
     ShowMessageFace("",0,0,2,243)
     ShowMessage("\\n<Panty Sensei>……ぐふっ！")
     TemporaryRemoveEvent()
     ShowMessageFace("",0,0,2,244)
     ShowMessage("パンツ先生は力尽きた……")
     355("gain_medal(2039)")
     ChangeSwitch(2121,2121,0)
     EndEventProcessing()
     0()
    EndIf()
    0()
   EndIf()
   ShowMessageFace("",0,0,2,245)
   ShowMessage("\\n<Panty Sensei>Hello, how are you today? If you've got any new panties, I'd love to see them.")
   ShowMessageFace("",0,0,2,246)
   ShowMessage("\\n<Panty Sensei>Don't worry, I'll just look. I won't touch or lick them or anything... But you will at least let me smell them, right?")
   0()
  Else()
   0()
  EndIf()
  0()
 PAGE   2
  // condition: party contains actor #567
  0()
