
DisplayName "Pocket Castle Lounge"



EVENT   2
 PAGE   1
  0()



EVENT   3
 PAGE   1
  281(0)
  250(bytes(0x04,0x08,0x6f,0x3a,0x0c,0x52,0x50,0x47,0x3a,0x3a,0x53,0x45,0x08,0x3a,0x0a,0x40,0x6e,0x61,0x6d,0x65,0x49,0x22,0x0a,0x4f,0x70,0x65,0x6e,0x31,0x06,0x3a,0x06,0x45,0x54,0x3a,0x0b,0x40,0x70,0x69,0x74,0x63,0x68,0x69,0x69,0x3a,0x0c,0x40,0x76,0x6f,0x6c,0x75,0x6d,0x65,0x69,0x55))
  205(0,bytes(0x04,0x08,0x6f,0x3a,0x13,0x52,0x50,0x47,0x3a,0x3a,0x4d,0x6f,0x76,0x65,0x52,0x6f,0x75,0x74,0x65,0x09,0x3a,0x0c,0x40,0x72,0x65,0x70,0x65,0x61,0x74,0x46,0x3a,0x0f,0x40,0x73,0x6b,0x69,0x70,0x70,0x61,0x62,0x6c,0x65,0x46,0x3a,0x0a,0x40,0x77,0x61,0x69,0x74,0x54,0x3a,0x0a,0x40,0x6c,0x69,0x73,0x74,0x5b,0x0c,0x6f,0x3a,0x15,0x52,0x50,0x47,0x3a,0x3a,0x4d,0x6f,0x76,0x65,0x43,0x6f,0x6d,0x6d,0x61,0x6e,0x64,0x07,0x3a,0x0a,0x40,0x63,0x6f,0x64,0x65,0x69,0x16,0x3a,0x10,0x40,0x70,0x61,0x72,0x61,0x6d,0x65,0x74,0x65,0x72,0x73,0x5b,0x00,0x6f,0x3b,0x0a,0x07,0x3b,0x0b,0x69,0x14,0x3b,0x0c,0x5b,0x06,0x69,0x08,0x6f,0x3b,0x0a,0x07,0x3b,0x0b,0x69,0x17,0x3b,0x0c,0x5b,0x00,0x6f,0x3b,0x0a,0x07,0x3b,0x0b,0x69,0x14,0x3b,0x0c,0x5b,0x06,0x69,0x08,0x6f,0x3b,0x0a,0x07,0x3b,0x0b,0x69,0x18,0x3b,0x0c,0x5b,0x00,0x6f,0x3b,0x0a,0x07,0x3b,0x0b,0x69,0x2a,0x3b,0x0c,0x5b,0x00,0x6f,0x3b,0x0a,0x07,0x3b,0x0b,0x69,0x00,0x3b,0x0c,0x5b,0x00))
  205(-1,bytes(0x04,0x08,0x6f,0x3a,0x13,0x52,0x50,0x47,0x3a,0x3a,0x4d,0x6f,0x76,0x65,0x52,0x6f,0x75,0x74,0x65,0x09,0x3a,0x0c,0x40,0x72,0x65,0x70,0x65,0x61,0x74,0x46,0x3a,0x0f,0x40,0x73,0x6b,0x69,0x70,0x70,0x61,0x62,0x6c,0x65,0x54,0x3a,0x0a,0x40,0x77,0x61,0x69,0x74,0x54,0x3a,0x0a,0x40,0x6c,0x69,0x73,0x74,0x5b,0x07,0x6f,0x3a,0x15,0x52,0x50,0x47,0x3a,0x3a,0x4d,0x6f,0x76,0x65,0x43,0x6f,0x6d,0x6d,0x61,0x6e,0x64,0x07,0x3a,0x0a,0x40,0x63,0x6f,0x64,0x65,0x69,0x11,0x3a,0x10,0x40,0x70,0x61,0x72,0x61,0x6d,0x65,0x74,0x65,0x72,0x73,0x5b,0x00,0x6f,0x3b,0x0a,0x07,0x3b,0x0b,0x69,0x00,0x3b,0x0c,0x5b,0x00))
  250(bytes(0x04,0x08,0x6f,0x3a,0x0c,0x52,0x50,0x47,0x3a,0x3a,0x53,0x45,0x08,0x3a,0x0a,0x40,0x6e,0x61,0x6d,0x65,0x49,0x22,0x09,0x4d,0x6f,0x76,0x65,0x06,0x3a,0x06,0x45,0x54,0x3a,0x0b,0x40,0x70,0x69,0x74,0x63,0x68,0x69,0x69,0x3a,0x0c,0x40,0x76,0x6f,0x6c,0x75,0x6d,0x65,0x69,0x55))
  TeleportPlayer(0,276,24,56,0,0)
  0()



EVENT   1
 PAGE   1
  // condition: switch 1078 is ON
  PictureDisplay(5,"80_syesta_st01",0,0,0,0,100,100,0,0)
  PictureMove(5,null,0,0,0,0,100,100,255,0,30,true)
  If(1,3078,0,10,1)
   If(1,4078,0,0,0)
    ChangeVariable(4078,4078,0,0,1)
    ShowMessageFace("syesta_fc1",0,0,2,1)
    ShowMessage("\\n<Shesta (Affection:\\V[3078])>これを持っていって…… あなたに使ってもらいたいの……")
    250(bytes(0x04,0x08,0x6f,0x3a,0x0c,0x52,0x50,0x47,0x3a,0x3a,0x53,0x45,0x08,0x3a,0x0a,0x40,0x6e,0x61,0x6d,0x65,0x49,0x22,0x0a,0x49,0x74,0x65,0x6d,0x31,0x06,0x3a,0x06,0x45,0x54,0x3a,0x0b,0x40,0x70,0x69,0x74,0x63,0x68,0x69,0x69,0x3a,0x0c,0x40,0x76,0x6f,0x6c,0x75,0x6d,0x65,0x69,0x55))
    ChangeInventory_Item(166,0,0,1)
    0()
   EndIf()
   0()
  EndIf()
  If(1,3078,0,100,1)
   If(1,4078,0,1,0)
    ChangeVariable(4078,4078,0,0,2)
    ShowMessageFace("syesta_fc1",0,0,2,2)
    ShowMessage("\\n<Shesta (Affection:\\V[3078])>これを持っていって…… あなたに使ってもらいたいの……")
    250(bytes(0x04,0x08,0x6f,0x3a,0x0c,0x52,0x50,0x47,0x3a,0x3a,0x53,0x45,0x08,0x3a,0x0a,0x40,0x6e,0x61,0x6d,0x65,0x49,0x22,0x0a,0x49,0x74,0x65,0x6d,0x31,0x06,0x3a,0x06,0x45,0x54,0x3a,0x0b,0x40,0x70,0x69,0x74,0x63,0x68,0x69,0x69,0x3a,0x0c,0x40,0x76,0x6f,0x6c,0x75,0x6d,0x65,0x69,0x55))
    ChangeInventoryArmor(1061,0,0,1,false)
    0()
   EndIf()
   0()
  EndIf()
  If(1,3078,0,500,1)
   If(1,4078,0,2,0)
    ChangeVariable(4078,4078,0,0,3)
    ShowMessageFace("syesta_fc1",0,0,2,3)
    ShowMessage("\\n<Shesta (Affection:\\V[3078])>これを持っていって…… あなたに使ってもらいたいの……")
    250(bytes(0x04,0x08,0x6f,0x3a,0x0c,0x52,0x50,0x47,0x3a,0x3a,0x53,0x45,0x08,0x3a,0x0a,0x40,0x6e,0x61,0x6d,0x65,0x49,0x22,0x0a,0x49,0x74,0x65,0x6d,0x31,0x06,0x3a,0x06,0x45,0x54,0x3a,0x0b,0x40,0x70,0x69,0x74,0x63,0x68,0x69,0x69,0x3a,0x0c,0x40,0x76,0x6f,0x6c,0x75,0x6d,0x65,0x69,0x55))
    ChangeInventoryArmor(1318,0,0,1,false)
    0()
   EndIf()
   0()
  EndIf()
  If(1,3078,0,2000,1)
   If(1,4078,0,3,0)
    ChangeVariable(4078,4078,0,0,4)
    ShowMessageFace("syesta_fc1",0,0,2,4)
    ShowMessage("\\n<Shesta (Affection:\\V[3078])>これを持っていって…… あなたに使ってもらいたいの……")
    250(bytes(0x04,0x08,0x6f,0x3a,0x0c,0x52,0x50,0x47,0x3a,0x3a,0x53,0x45,0x08,0x3a,0x0a,0x40,0x6e,0x61,0x6d,0x65,0x49,0x22,0x0a,0x49,0x74,0x65,0x6d,0x31,0x06,0x3a,0x06,0x45,0x54,0x3a,0x0b,0x40,0x70,0x69,0x74,0x63,0x68,0x69,0x69,0x3a,0x0c,0x40,0x76,0x6f,0x6c,0x75,0x6d,0x65,0x69,0x55))
    ChangeInventoryArmor(1101,0,0,1,false)
    0()
   EndIf()
   0()
  EndIf()
  355("actor_label_jump")
  ShowMessageFace("syesta_fc1",0,0,2,5)
  ShowMessage("\\n<Shesta (Affection:\\V[3078])>お茶を飲んでいると、なんだか懐かしい……")
  JumpToLabel("メニュー")
  DefineLabel("55")
  ShowMessageFace("syesta_fc1",0,0,2,6)
  ShowMessage("\\n<Shesta (Affection:\\V[3078])>虫の足で、ドレスが破れてしまうわ…… 新しいドレスを新調しても、すぐビリビリ……")
  ShowMessageFace("name_fc1",0,0,2,7)
  ShowMessage("\\n<Melk (Affection:\\V[3055])>その悩み、よく分かるわ。 私も、すぐドレスがヌルヌルになってしまうのよ……")
  ShowMessageFace("name_fc1",0,0,2,8)
  ShowMessage("\\n<Melk (Affection:\\V[3055])>今度、一緒にドレスを買いに行きましょう。 帰りに沼でコケでも食べながらジメジメしない？")
  ShowMessageFace("syesta_fc1",0,0,2,9)
  ShowMessage("\\n<Shesta (Affection:\\V[3078])>楽しそうね…… 昔、そういう事をしていた気がする……")
  JumpToLabel("メニュー")
  DefineLabel("75")
  ShowMessageFace("syesta_fc1",0,0,2,10)
  ShowMessage("\\n<Shesta (Affection:\\V[3078])>こうしてお茶を飲んでいれば…… 記憶を取り戻すかも……")
  ShowMessageFace("hituzi_fc1",3,0,2,11)
  ShowMessage("\\n<Mary (Affection:\\V[3075])>茶なんかではダメなのら、酒を飲むのら。 ほら、グビグビいけ！")
  ShowMessageFace("syesta_fc1",0,0,2,12)
  ShowMessage("\\n<Shesta (Affection:\\V[3078])>それじゃあ、飲んでみる…… ぐびぐびぐび……")
  ShowMessageFace("syesta_fc1",0,0,2,13)
  ShowMessage("\\n<Shesta (Affection:\\V[3078])>……………………")
  ShowMessageFace("syesta_fc1",0,0,2,14)
  ShowMessage("\\n<Shesta (Affection:\\V[3078])>まったく、姉さんはお酒ばっかり飲んで。 それだから嫁のもらい手がないの、分かる？")
  ShowMessageFace("syesta_fc1",0,0,2,15)
  ShowMessage("\\n<Shesta (Affection:\\V[3078])>だいたい、お仕事はどうしたのよ。 半年ぶりに見付けた、道具屋のバイトなんでしょう？")
  ShowMessageFace("hituzi_fc1",3,0,2,16)
  ShowMessage("\\n<Mary (Affection:\\V[3075])>（本当に記憶が戻ってしまったのら……)")
  ShowMessageFace("syesta_fc1",0,0,2,17)
  ShowMessage("\\n<Shesta (Affection:\\V[3078])>……私、何を言っていたの？ 今の数分の記憶も、なくしてしまった……")
  ShowMessageFace("hituzi_fc1",3,0,2,18)
  ShowMessage("\\n<Mary (Affection:\\V[3075])>（飲ませない方がいいみたいら……)")
  JumpToLabel("メニュー")
  DefineLabel("90")
  ShowMessageFace("syesta_fc1",0,0,2,19)
  ShowMessage("\\n<Shesta (Affection:\\V[3078])>あなたと私、どこか似ているような……")
  ShowMessageFace("meda_fc1",0,0,2,20)
  ShowMessage("\\n<Meru Meru (Affection:\\V[3090])>かさかさ、もぞもぞ……")
  ShowMessageFace("syesta_fc1",0,0,2,21)
  ShowMessage("\\n<Shesta (Affection:\\V[3078])>かさかさかさ……")
  ShowMessageFace("meda_fc1",0,0,2,22)
  ShowMessage("\\n<Meru Meru (Affection:\\V[3090])>もぞもぞもぞ……")
  ShowMessageFace("syesta_fc1",0,0,2,23)
  ShowMessage("\\n<Shesta (Affection:\\V[3078])>なるほど、分かった……")
  JumpToLabel("メニュー")
  DefineLabel("メニュー")
  StartLoop()
   355("unlimited_choices(11, [\"Give presents\",")
   655("\"Add to party\",")
   655("\"View present list\",\"Request\",")
   655("\"Never mind\"])")
   If(1,11,0,0,0)
    355("present_start(78)")
    0()
   EndIf()
   If(1,11,0,1,0)
    PictureClear(5)
    355("move_actor_ex(78)")
    EndEventProcessing()
    0()
   EndIf()
   If(1,11,0,2,0)
    ShowMessageFace("",0,0,2,24)
    ShowMessage("Affection   10:\\ii[166]")
    ShowMessage("Affection  100:\\ia[1061]")
    ShowMessage("Affection  500:\\ia[1318]")
    ShowMessage("Affection 2000:\\ia[1101]")
    0()
   EndIf()
   If(1,11,0,3,0)
    PictureClear(5)
    ShowMessageFace("",0,0,2,25)
    ShowMessage("Ask her for what? (Affection:\\V[3078])")
    ShowChoices(strings("Semen Squeezing Hole(Affection:10)","Never mind"),2)
    IfPlayerPicksChoice(0,null)
     If(1,3078,0,10,1)
      355("call_novel_scene(4181)")
      EndEventProcessing()
      0()
     Else()
      ShowMessageFace("syesta_fc1",0,0,2,26)
      ShowMessage("\\n<Shesta (Affection:\\V[3078])>ちょっと今は、考えさせて……")
      0()
     EndIf()
     0()
    IfPlayerPicksChoice(1,null)
     0()
    404()
    0()
   EndIf()
   If(1,11,0,4,1)
    PictureClear(5)
    EndEventProcessing()
    0()
   EndIf()
   0()
  EndLoop()
  0()
 PAGE   2
  // condition: party contains actor #78
  0()



EVENT   4
 PAGE   1
  RunCommonEvent(111)
  0()



EVENT   5
 PAGE   1
  // condition: switch 1131 is ON
  PictureDisplay(5,"80_doll_st01",0,0,0,0,100,100,0,0)
  PictureMove(5,null,0,0,0,0,100,100,255,0,30,true)
  If(1,3131,0,10,1)
   If(1,4131,0,0,0)
    ChangeVariable(4131,4131,0,0,1)
    ShowMessageFace("doll_fc1",0,0,2,1)
    ShowMessage("\\n<Miyabi (Affection:\\V[3131])>おにいちゃん……これで、あたしとあそぼう……")
    250(bytes(0x04,0x08,0x6f,0x3a,0x0c,0x52,0x50,0x47,0x3a,0x3a,0x53,0x45,0x08,0x3a,0x0a,0x40,0x6e,0x61,0x6d,0x65,0x49,0x22,0x0a,0x49,0x74,0x65,0x6d,0x31,0x06,0x3a,0x06,0x45,0x54,0x3a,0x0b,0x40,0x70,0x69,0x74,0x63,0x68,0x69,0x69,0x3a,0x0c,0x40,0x76,0x6f,0x6c,0x75,0x6d,0x65,0x69,0x55))
    ChangeInventory_Item(22,0,0,1)
    0()
   EndIf()
   0()
  EndIf()
  If(1,3131,0,100,1)
   If(1,4131,0,1,0)
    ChangeVariable(4131,4131,0,0,2)
    ShowMessageFace("doll_fc1",0,0,2,2)
    ShowMessage("\\n<Miyabi (Affection:\\V[3131])>おにいちゃん……これで、あたしとあそぼう……")
    250(bytes(0x04,0x08,0x6f,0x3a,0x0c,0x52,0x50,0x47,0x3a,0x3a,0x53,0x45,0x08,0x3a,0x0a,0x40,0x6e,0x61,0x6d,0x65,0x49,0x22,0x0a,0x49,0x74,0x65,0x6d,0x31,0x06,0x3a,0x06,0x45,0x54,0x3a,0x0b,0x40,0x70,0x69,0x74,0x63,0x68,0x69,0x69,0x3a,0x0c,0x40,0x76,0x6f,0x6c,0x75,0x6d,0x65,0x69,0x55))
    ChangeInventoryArmor(1061,0,0,1,false)
    0()
   EndIf()
   0()
  EndIf()
  If(1,3131,0,500,1)
   If(1,4131,0,2,0)
    ChangeVariable(4131,4131,0,0,3)
    ShowMessageFace("doll_fc1",0,0,2,3)
    ShowMessage("\\n<Miyabi (Affection:\\V[3131])>おにいちゃん……これで、あたしとあそぼう……")
    250(bytes(0x04,0x08,0x6f,0x3a,0x0c,0x52,0x50,0x47,0x3a,0x3a,0x53,0x45,0x08,0x3a,0x0a,0x40,0x6e,0x61,0x6d,0x65,0x49,0x22,0x0a,0x49,0x74,0x65,0x6d,0x31,0x06,0x3a,0x06,0x45,0x54,0x3a,0x0b,0x40,0x70,0x69,0x74,0x63,0x68,0x69,0x69,0x3a,0x0c,0x40,0x76,0x6f,0x6c,0x75,0x6d,0x65,0x69,0x55))
    ChangeInventoryArmor(1046,0,0,1,false)
    0()
   EndIf()
   0()
  EndIf()
  If(1,3131,0,2000,1)
   If(1,4131,0,3,0)
    ChangeVariable(4131,4131,0,0,4)
    ShowMessageFace("doll_fc1",0,0,2,4)
    ShowMessage("\\n<Miyabi (Affection:\\V[3131])>おにいちゃん……これで、あたしとあそぼう……")
    250(bytes(0x04,0x08,0x6f,0x3a,0x0c,0x52,0x50,0x47,0x3a,0x3a,0x53,0x45,0x08,0x3a,0x0a,0x40,0x6e,0x61,0x6d,0x65,0x49,0x22,0x0a,0x49,0x74,0x65,0x6d,0x31,0x06,0x3a,0x06,0x45,0x54,0x3a,0x0b,0x40,0x70,0x69,0x74,0x63,0x68,0x69,0x69,0x3a,0x0c,0x40,0x76,0x6f,0x6c,0x75,0x6d,0x65,0x69,0x55))
    ChangeInventoryArmor(1065,0,0,1,false)
    0()
   EndIf()
   0()
  EndIf()
  355("actor_label_jump")
  ShowMessageFace("doll_fc1",0,0,2,5)
  ShowMessage("\\n<Miyabi (Affection:\\V[3131])>おにいちゃん……あそぼうよ……")
  JumpToLabel("メニュー")
  DefineLabel("130")
  ShowMessageFace("ghost_fc1",0,0,2,6)
  ShowMessage("\\n<Carrie (Affection:\\V[3130])>みやび、髪が伸びてるわよ…… 切ってあげるわ……じょきじょき……")
  ShowMessageFace("doll_fc1",0,0,2,7)
  ShowMessage("\\n<Miyabi (Affection:\\V[3131])>わ～い！　ありがと～！")
  ShowMessageFace("ghost_fc1",0,0,2,8)
  ShowMessage("\\n<Carrie (Affection:\\V[3130])>（切った髪も伸びてる…… 　この子、なんだか怖い……)")
  JumpToLabel("メニュー")
  DefineLabel("134")
  ShowMessageFace("doll_fc1",0,0,2,9)
  ShowMessage("\\n<Miyabi (Affection:\\V[3131])>クロムちゃん、あそぼ……")
  ShowMessageFace("chrom_fc2",3,0,2,10)
  ShowMessage("\\n<Chrome (Affection:\\V[3134])>うむ、人形遊びか。 それでは、みやび重装型として生まれ変わるのじゃ！")
  ShowMessageFace("sonia_fc2",5,0,2,11)
  ShowMessage("\\n<Sonya>遊びすぎ！")
  JumpToLabel("メニュー")
  DefineLabel("184")
  ShowMessageFace("doll_fc1",0,0,2,12)
  ShowMessage("\\n<Miyabi (Affection:\\V[3131])>わぁ、人形の女王様だ……")
  ShowMessageFace("junkdoll_fc2",0,0,2,13)
  ShowMessage("\\n<Francesca (Affection:\\V[3184])>女王なんかじゃないわ、ただのジャンクよ…… あなたも、私の一部になる？")
  ShowMessageFace("doll_fc1",0,0,2,14)
  ShowMessage("\\n<Miyabi (Affection:\\V[3131])>うん、なる！　一番てっぺんがいいな！")
  ShowMessageFace("junkdoll_fc1",0,0,2,15)
  ShowMessage("\\n<Francesca (Affection:\\V[3184])>そこはダメよ、私の特等席だから……")
  JumpToLabel("メニュー")
  DefineLabel("メニュー")
  StartLoop()
   355("unlimited_choices(11, [\"Give presents\",")
   655("\"Add to party\",")
   655("\"View present list\",\"Request\",")
   655("\"Never mind\"])")
   If(1,11,0,0,0)
    355("present_start(131)")
    0()
   EndIf()
   If(1,11,0,1,0)
    PictureClear(5)
    355("move_actor_ex(131)")
    EndEventProcessing()
    0()
   EndIf()
   If(1,11,0,2,0)
    ShowMessageFace("",0,0,2,16)
    ShowMessage("Affection   10:\\ii[22]")
    ShowMessage("Affection  100:\\ia[1061]")
    ShowMessage("Affection  500:\\ia[1046]")
    ShowMessage("Affection 2000:\\ia[1065]")
    0()
   EndIf()
   If(1,11,0,3,0)
    PictureClear(5)
    ShowMessageFace("",0,0,2,17)
    ShowMessage("Ask her for what? (Affection:\\V[3131])")
    ShowChoices(strings("Soul Sucking Hair(Affection:10)","Reverse Rape(Affection:50)","いたずら(Affection:100)","Never mind"),4)
    IfPlayerPicksChoice(0,null)
     If(1,3131,0,10,1)
      355("call_novel_scene(4446)")
      EndEventProcessing()
      0()
     Else()
      ShowMessageFace("doll_fc1",0,0,2,18)
      ShowMessage("\\n<Miyabi (Affection:\\V[3131])>べつのあそびしようよ……")
      0()
     EndIf()
     0()
    IfPlayerPicksChoice(1,null)
     If(1,3131,0,50,1)
      355("call_novel_scene(4447)")
      EndEventProcessing()
      0()
     Else()
      ShowMessageFace("doll_fc1",0,0,2,19)
      ShowMessage("\\n<Miyabi (Affection:\\V[3131])>べつのあそびしようよ……")
      0()
     EndIf()
     0()
    IfPlayerPicksChoice(2,null)
     If(1,3131,0,100,1)
      355("call_novel_scene(4448)")
      EndEventProcessing()
      0()
     Else()
      ShowMessageFace("doll_fc1",0,0,2,20)
      ShowMessage("\\n<Miyabi (Affection:\\V[3131])>べつのあそびしようよ……")
      0()
     EndIf()
     0()
    IfPlayerPicksChoice(3,null)
     0()
    404()
    0()
   EndIf()
   If(1,11,0,4,1)
    PictureClear(5)
    EndEventProcessing()
    0()
   EndIf()
   0()
  EndLoop()
  0()
 PAGE   2
  // condition: party contains actor #131
  0()



EVENT   6
 PAGE   1
  // condition: switch 1140 is ON
  PictureDisplay(5,"80_taran_st01",0,0,0,0,100,100,0,0)
  PictureMove(5,null,0,0,0,0,100,100,255,0,30,true)
  If(1,3140,0,10,1)
   If(1,4140,0,0,0)
    ChangeVariable(4140,4140,0,0,1)
    ShowMessageFace("taran_fc1",0,0,2,1)
    ShowMessage("\\n<Rachura (Affection:\\V[3140])>これ、私からのプレゼントよ。 手織りの服を作ろうとしたけど、大失敗して……")
    250(bytes(0x04,0x08,0x6f,0x3a,0x0c,0x52,0x50,0x47,0x3a,0x3a,0x53,0x45,0x08,0x3a,0x0a,0x40,0x6e,0x61,0x6d,0x65,0x49,0x22,0x0a,0x49,0x74,0x65,0x6d,0x31,0x06,0x3a,0x06,0x45,0x54,0x3a,0x0b,0x40,0x70,0x69,0x74,0x63,0x68,0x69,0x69,0x3a,0x0c,0x40,0x76,0x6f,0x6c,0x75,0x6d,0x65,0x69,0x55))
    ChangeInventory_Item(30,0,0,1)
    0()
   EndIf()
   0()
  EndIf()
  If(1,3140,0,100,1)
   If(1,4140,0,1,0)
    ChangeVariable(4140,4140,0,0,2)
    ShowMessageFace("taran_fc1",0,0,2,2)
    ShowMessage("\\n<Rachura (Affection:\\V[3140])>これ、私からのプレゼントよ。 手織りの服を作ろうとしたけど、大失敗して……")
    250(bytes(0x04,0x08,0x6f,0x3a,0x0c,0x52,0x50,0x47,0x3a,0x3a,0x53,0x45,0x08,0x3a,0x0a,0x40,0x6e,0x61,0x6d,0x65,0x49,0x22,0x0a,0x49,0x74,0x65,0x6d,0x31,0x06,0x3a,0x06,0x45,0x54,0x3a,0x0b,0x40,0x70,0x69,0x74,0x63,0x68,0x69,0x69,0x3a,0x0c,0x40,0x76,0x6f,0x6c,0x75,0x6d,0x65,0x69,0x55))
    ChangeInventoryArmor(1171,0,0,1,false)
    0()
   EndIf()
   0()
  EndIf()
  If(1,3140,0,500,1)
   If(1,4140,0,2,0)
    ChangeVariable(4140,4140,0,0,3)
    ShowMessageFace("taran_fc1",0,0,2,3)
    ShowMessage("\\n<Rachura (Affection:\\V[3140])>これ、私からのプレゼントよ。 手織りの服を作ろうとしたけど、大失敗して……")
    250(bytes(0x04,0x08,0x6f,0x3a,0x0c,0x52,0x50,0x47,0x3a,0x3a,0x53,0x45,0x08,0x3a,0x0a,0x40,0x6e,0x61,0x6d,0x65,0x49,0x22,0x0a,0x49,0x74,0x65,0x6d,0x31,0x06,0x3a,0x06,0x45,0x54,0x3a,0x0b,0x40,0x70,0x69,0x74,0x63,0x68,0x69,0x69,0x3a,0x0c,0x40,0x76,0x6f,0x6c,0x75,0x6d,0x65,0x69,0x55))
    ChangeInventoryArmor(1393,0,0,1,false)
    0()
   EndIf()
   0()
  EndIf()
  If(1,3140,0,2000,1)
   If(1,4140,0,3,0)
    ChangeVariable(4140,4140,0,0,4)
    ShowMessageFace("taran_fc1",0,0,2,4)
    ShowMessage("\\n<Rachura (Affection:\\V[3140])>これ、私からのプレゼントよ。 手織りの服を作ろうとしたけど、大失敗して……")
    250(bytes(0x04,0x08,0x6f,0x3a,0x0c,0x52,0x50,0x47,0x3a,0x3a,0x53,0x45,0x08,0x3a,0x0a,0x40,0x6e,0x61,0x6d,0x65,0x49,0x22,0x0a,0x49,0x74,0x65,0x6d,0x31,0x06,0x3a,0x06,0x45,0x54,0x3a,0x0b,0x40,0x70,0x69,0x74,0x63,0x68,0x69,0x69,0x3a,0x0c,0x40,0x76,0x6f,0x6c,0x75,0x6d,0x65,0x69,0x55))
    ChangeInventoryArmor(1509,0,0,1,false)
    0()
   EndIf()
   0()
  EndIf()
  355("actor_label_jump")
  ShowMessageFace("taran_fc1",0,0,2,5)
  ShowMessage("\\n<Rachura (Affection:\\V[3140])>編み物の練習にも飽きたわ。 ベタベタになるだけだし……")
  JumpToLabel("メニュー")
  DefineLabel("104")
  ShowMessageFace("kumo_fc1",0,0,2,6)
  ShowMessage("\\n<Rachnee (Affection:\\V[3104])>あれ、同類なんて珍しい…… 私達は一匹狼だから、あんまり出会わないよね。")
  ShowMessageFace("taran_fc1",0,0,2,7)
  ShowMessage("\\n<Rachura (Affection:\\V[3140])>蜘蛛の魔物は、虫系の中でも浮いてるしね。 私、平和を愛する魔物なのに……")
  ShowMessageFace("kumo_fc1",0,0,2,8)
  ShowMessage("\\n<Rachnee (Affection:\\V[3104])>その図体じゃ、説得力ないわよね……")
  ShowMessageFace("taran_fc1",0,0,2,9)
  ShowMessage("\\n<Rachura (Affection:\\V[3140])>もっと可愛く飾り付けした方がいいのかしら……？")
  JumpToLabel("メニュー")
  DefineLabel("145")
  ShowMessageFace("mukade_fc1",0,0,2,10)
  ShowMessage("\\n<Vanessa (Affection:\\V[3145])>あなたも、外見で嫌われているクチね……")
  ShowMessageFace("taran_fc1",0,0,2,11)
  ShowMessage("\\n<Rachura (Affection:\\V[3140])>その通りよ。 こんなに穏やかなタランチュラなのに……")
  ShowMessageFace("mukade_fc1",0,0,2,12)
  ShowMessage("\\n<Vanessa (Affection:\\V[3145])>私も外見で差別されるわ。 こんなに穏やかなムカデなのに……")
  ShowMessageFace("taran_fc1",0,0,2,13)
  ShowMessage("\\n<Rachura (Affection:\\V[3140])>いや、あなたは獰猛な魔物でしょう……？")
  JumpToLabel("メニュー")
  DefineLabel("157")
  ShowMessageFace("taran_fc1",0,0,2,14)
  ShowMessage("\\n<Rachura (Affection:\\V[3140])>あら、あなたも地上派のアラクネ？ 見たとこ、東方の生まれみたいね。")
  ShowMessageFace("oogumo_fc1",0,0,2,15)
  ShowMessage("\\n<Ashidaka (Affection:\\V[3157])>ヤマタイから出てきたんだぞ。 いちおう妖怪なんだからな！")
  ShowMessageFace("taran_fc1",0,0,2,16)
  ShowMessage("\\n<Rachura (Affection:\\V[3140])>ヤマタイって、魔物でも差別されないのよね？ あなたも故郷で受け入れられてるのかしら……")
  ShowMessageFace("oogumo_fc1",0,0,2,17)
  ShowMessage("\\n<Ashidaka (Affection:\\V[3157])>朝の蜘蛛なら、大丈夫だぞ。 夜の蜘蛛なら、本気で殺りに来るけどな……")
  JumpToLabel("メニュー")
  DefineLabel("メニュー")
  StartLoop()
   355("unlimited_choices(11, [\"Give presents\",")
   655("\"Add to party\",")
   655("\"View present list\",\"Request\",")
   655("\"Never mind\"])")
   If(1,11,0,0,0)
    355("present_start(140)")
    0()
   EndIf()
   If(1,11,0,1,0)
    PictureClear(5)
    355("move_actor_ex(140)")
    EndEventProcessing()
    0()
   EndIf()
   If(1,11,0,2,0)
    ShowMessageFace("",0,0,2,18)
    ShowMessage("Affection   10:\\ii[30]")
    ShowMessage("Affection  100:\\ia[1171]")
    ShowMessage("Affection  500:\\ia[1393]")
    ShowMessage("Affection 2000:\\ia[1509]")
    0()
   EndIf()
   If(1,11,0,3,0)
    PictureClear(5)
    ShowMessageFace("",0,0,2,19)
    ShowMessage("Ask her for what? (Affection:\\V[3140])")
    ShowChoices(strings("Tarantula Rape 1(Affection:10)","Tarantula Rape 2(Affection:100)","やめる"),3)
    IfPlayerPicksChoice(0,null)
     If(1,3140,0,10,1)
      355("call_novel_scene(4496)")
      EndEventProcessing()
      0()
     Else()
      ShowMessageFace("taran_fc1",0,0,2,20)
      ShowMessage("\\n<Rachura (Affection:\\V[3140])>今は気が乗らないの。また今度ね……")
      0()
     EndIf()
     0()
    IfPlayerPicksChoice(1,null)
     If(1,3140,0,100,1)
      355("call_novel_scene(4497)")
      EndEventProcessing()
      0()
     Else()
      ShowMessageFace("taran_fc1",0,0,2,21)
      ShowMessage("\\n<Rachura (Affection:\\V[3140])>今は気が乗らないの。また今度ね……")
      0()
     EndIf()
     0()
    IfPlayerPicksChoice(2,null)
     0()
    404()
    0()
   EndIf()
   If(1,11,0,4,1)
    PictureClear(5)
    EndEventProcessing()
    0()
   EndIf()
   0()
  EndLoop()
  0()
 PAGE   2
  // condition: party contains actor #140
  0()



EVENT   7
 PAGE   1
  // condition: switch 1166 is ON
  PictureDisplay(5,"80_narcubus_st11",0,0,0,0,100,100,0,0)
  PictureMove(5,null,0,0,0,0,100,100,255,0,30,true)
  If(1,3166,0,10,1)
   If(1,4166,0,0,0)
    ChangeVariable(4166,4166,0,0,1)
    ShowMessageFace("narcubus_fc1",0,0,2,1)
    ShowMessage("\\n<Manako (Affection:\\V[3166])>はい、これプレゼントです。 お大事にー♪")
    250(bytes(0x04,0x08,0x6f,0x3a,0x0c,0x52,0x50,0x47,0x3a,0x3a,0x53,0x45,0x08,0x3a,0x0a,0x40,0x6e,0x61,0x6d,0x65,0x49,0x22,0x0a,0x49,0x74,0x65,0x6d,0x31,0x06,0x3a,0x06,0x45,0x54,0x3a,0x0b,0x40,0x70,0x69,0x74,0x63,0x68,0x69,0x69,0x3a,0x0c,0x40,0x76,0x6f,0x6c,0x75,0x6d,0x65,0x69,0x55))
    ChangeInventoryWeapon(802,0,0,1,false)
    0()
   EndIf()
   0()
  EndIf()
  If(1,3166,0,100,1)
   If(1,4166,0,1,0)
    ChangeVariable(4166,4166,0,0,2)
    ShowMessageFace("narcubus_fc1",0,0,2,2)
    ShowMessage("\\n<Manako (Affection:\\V[3166])>はい、これプレゼントです。 お大事にー♪")
    250(bytes(0x04,0x08,0x6f,0x3a,0x0c,0x52,0x50,0x47,0x3a,0x3a,0x53,0x45,0x08,0x3a,0x0a,0x40,0x6e,0x61,0x6d,0x65,0x49,0x22,0x0a,0x49,0x74,0x65,0x6d,0x31,0x06,0x3a,0x06,0x45,0x54,0x3a,0x0b,0x40,0x70,0x69,0x74,0x63,0x68,0x69,0x69,0x3a,0x0c,0x40,0x76,0x6f,0x6c,0x75,0x6d,0x65,0x69,0x55))
    ChangeInventoryArmor(1735,0,0,1,false)
    0()
   EndIf()
   0()
  EndIf()
  If(1,3166,0,500,1)
   If(1,4166,0,2,0)
    ChangeVariable(4166,4166,0,0,3)
    ShowMessageFace("narcubus_fc1",0,0,2,3)
    ShowMessage("\\n<Manako (Affection:\\V[3166])>はい、これプレゼントです。 お大事にー♪")
    250(bytes(0x04,0x08,0x6f,0x3a,0x0c,0x52,0x50,0x47,0x3a,0x3a,0x53,0x45,0x08,0x3a,0x0a,0x40,0x6e,0x61,0x6d,0x65,0x49,0x22,0x0a,0x49,0x74,0x65,0x6d,0x31,0x06,0x3a,0x06,0x45,0x54,0x3a,0x0b,0x40,0x70,0x69,0x74,0x63,0x68,0x69,0x69,0x3a,0x0c,0x40,0x76,0x6f,0x6c,0x75,0x6d,0x65,0x69,0x55))
    ChangeInventoryArmor(1345,0,0,1,false)
    0()
   EndIf()
   0()
  EndIf()
  If(1,3166,0,2000,1)
   If(1,4166,0,3,0)
    ChangeVariable(4166,4166,0,0,4)
    ShowMessageFace("narcubus_fc1",0,0,2,4)
    ShowMessage("\\n<Manako (Affection:\\V[3166])>はい、これプレゼントです。 お大事にー♪")
    250(bytes(0x04,0x08,0x6f,0x3a,0x0c,0x52,0x50,0x47,0x3a,0x3a,0x53,0x45,0x08,0x3a,0x0a,0x40,0x6e,0x61,0x6d,0x65,0x49,0x22,0x0a,0x49,0x74,0x65,0x6d,0x31,0x06,0x3a,0x06,0x45,0x54,0x3a,0x0b,0x40,0x70,0x69,0x74,0x63,0x68,0x69,0x69,0x3a,0x0c,0x40,0x76,0x6f,0x6c,0x75,0x6d,0x65,0x69,0x55))
    ChangeInventoryArmor(1473,0,0,1,false)
    0()
   EndIf()
   0()
  EndIf()
  355("actor_label_jump")
  ShowMessageFace("narcubus_fc1",0,0,2,5)
  ShowMessage("\\n<Manako (Affection:\\V[3166])>はい、診察ですかぁ……？ それじゃあ、服を脱いで下さいね……♪")
  JumpToLabel("メニュー")
  DefineLabel("41")
  ShowMessageFace("stein_fc2",0,0,2,6)
  ShowMessage("\\n<Promestein (Affection:\\V[3041])>研究疲れで、脳の働きが鈍ってきましたね。 ここは、甘いものでも頂きましょう……")
  ShowMessageFace("narcubus_fc1",0,0,2,7)
  ShowMessage("\\n<Manako (Affection:\\V[3166])>甘いものが脳に良いって、俗説ですよ。 プロメスティンさんが、それを知らないはずないですよね？")
  ShowMessageFace("stein_fc2",1,0,2,8)
  ShowMessage("\\n<Promestein (Affection:\\V[3041])>……えへへっ♪")
  JumpToLabel("メニュー")
  DefineLabel("122")
  ShowMessageFace("sisterlamia_fc1",0,0,2,9)
  ShowMessage("\\n<Sofia (Affection:\\V[3122])>おや、お久しぶりですね。 立派なナースになったようで、とても嬉しいです。")
  ShowMessageFace("narcubus_fc1",0,0,2,10)
  ShowMessage("\\n<Manako (Affection:\\V[3166])>ソフィアちゃんも、立派なシスターになりましたね。 教会で一緒だった頃は、互いにヒヨコだったのに……")
  ShowMessageFace("sisterlamia_fc1",0,0,2,11)
  ShowMessage("\\n<Sofia (Affection:\\V[3122])>お互い、がんばって夢を叶えましょう。 立派な医者になれるといいですね。")
  ShowMessageFace("narcubus_fc1",0,0,2,12)
  ShowMessage("\\n<Manako (Affection:\\V[3166])>ソフィアちゃんも、立派な神様になれるといいですね。 応援してます！")
  ShowMessageFace("sisterlamia_fc1",2,0,2,13)
  ShowMessage("\\n<Sofia (Affection:\\V[3122])>神様……？")
  JumpToLabel("メニュー")
  DefineLabel("143")
  ShowMessageFace("narcubus_fc1",0,0,2,14)
  ShowMessage("\\n<Manako (Affection:\\V[3166])>エヴァちゃん、元気だった？ お腹空かせてなかった……？")
  ShowMessageFace("eva_fc1",2,0,2,15)
  ShowMessage("\\n<Eva (Affection:\\V[3143])>もちろん元気よ！ おなかは空かせてたけど……")
  ShowMessageFace("narcubus_fc1",0,0,2,16)
  ShowMessage("\\n<Manako (Affection:\\V[3166])>エヴァちゃん、ちゃんと働いてた？")
  ShowMessageFace("eva_fc1",2,0,2,17)
  ShowMessage("\\n<Eva (Affection:\\V[3143])>働いてないけど……")
  ShowMessageFace("narcubus_fc1",3,0,2,18)
  ShowMessage("\\n<Manako (Affection:\\V[3166])>やっぱり、そうだと思った…… ちゃんと食べて、働かないとダメだよ。")
  JumpToLabel("メニュー")
  DefineLabel("164")
  ShowMessageFace("kooni_fc1",2,0,2,19)
  ShowMessage("\\n<Shizuku (Affection:\\V[3164])>走ってたら転んで、ヒザすりむいちゃった……")
  ShowMessageFace("narcubus_fc1",3,0,2,20)
  ShowMessage("\\n<Manako (Affection:\\V[3166])>お薬、ぬりぬり…… ばんそうこう、ぺたっ。")
  ShowMessageFace("narcubus_fc1",0,0,2,21)
  ShowMessage("\\n<Manako (Affection:\\V[3166])>はい、これで大丈夫ですよ♪")
  ShowMessageFace("kooni_fc1",2,0,2,22)
  ShowMessage("\\n<Shizuku (Affection:\\V[3164])>ありがとう、それじゃいくよー！ ……あいたっ！　転んだっ！")
  ShowMessageFace("narcubus_fc1",2,0,2,23)
  ShowMessage("\\n<Manako (Affection:\\V[3166])>もう、気をつけなくちゃダメですよ……")
  JumpToLabel("メニュー")
  DefineLabel("165")
  ShowMessageFace("onaho_fc1",0,0,2,24)
  ShowMessage("\\n<Naho (Affection:\\V[3165])>ナーキュバスちゃん！ 精液を採取するなら、協力しますよ！")
  ShowMessageFace("narcubus_fc1",0,0,2,25)
  ShowMessage("\\n<Manako (Affection:\\V[3166])>ありがとう、今はいいですよ。 最近は怪我人が多いんです……")
  ShowMessageFace("onaho_fc1",0,0,2,26)
  ShowMessage("\\n<Naho (Affection:\\V[3165])>みんなの体がぷるぷるだったら、ケガしないのに…… ……ひらめきました！")
  ShowMessageFace("narcubus_fc1",3,0,2,27)
  ShowMessage("\\n<Manako (Affection:\\V[3166])>ダメです。")
  JumpToLabel("メニュー")
  DefineLabel("メニュー")
  StartLoop()
   355("unlimited_choices(11, [\"Give presents\",")
   655("\"Add to party\",")
   655("\"View present list\",\"Request\",")
   655("\"Never mind\"])")
   If(1,11,0,0,0)
    355("present_start(166)")
    0()
   EndIf()
   If(1,11,0,1,0)
    PictureClear(5)
    355("move_actor_ex(166)")
    EndEventProcessing()
    0()
   EndIf()
   If(1,11,0,2,0)
    ShowMessageFace("",0,0,2,28)
    ShowMessage("Affection   10:\\ii[802]")
    ShowMessage("Affection  100:\\ia[1735]")
    ShowMessage("Affection  500:\\ia[1345]")
    ShowMessage("Affection 2000:\\ia[1473]")
    0()
   EndIf()
   If(1,11,0,3,0)
    PictureClear(5)
    ShowMessageFace("",0,0,2,29)
    ShowMessage("Ask her for what? (Affection:\\V[3166])")
    ShowChoices(strings("Stepping Reaction Check(Affection:10)","Tail Semen Ejection Test(Affection:50)","Reverse rape(Affection:100)","Never mind"),4)
    IfPlayerPicksChoice(0,null)
     If(1,3166,0,10,1)
      355("call_novel_scene(4631)")
      EndEventProcessing()
      0()
     Else()
      ShowMessageFace("narcubus_fc1",2,0,2,30)
      ShowMessage("\\n<Manako (Affection:\\V[3166])>いけませんよ、ここはそういうお店じゃないんですから……")
      0()
     EndIf()
     0()
    IfPlayerPicksChoice(1,null)
     If(1,3166,0,50,1)
      355("call_novel_scene(4632)")
      EndEventProcessing()
      0()
     Else()
      ShowMessageFace("narcubus_fc1",2,0,2,31)
      ShowMessage("\\n<Manako (Affection:\\V[3166])>いけませんよ、ここはそういうお店じゃないんですから……")
      0()
     EndIf()
     0()
    IfPlayerPicksChoice(2,null)
     If(1,3166,0,100,1)
      355("call_novel_scene(4633)")
      EndEventProcessing()
      0()
     Else()
      ShowMessageFace("narcubus_fc1",2,0,2,32)
      ShowMessage("\\n<Manako (Affection:\\V[3166])>いけませんよ、ここはそういうお店じゃないんですから……")
      0()
     EndIf()
     0()
    IfPlayerPicksChoice(3,null)
     0()
    404()
    0()
   EndIf()
   If(1,11,0,4,1)
    PictureClear(5)
    EndEventProcessing()
    0()
   EndIf()
   0()
  EndLoop()
  0()
 PAGE   2
  // condition: party contains actor #166
  0()



EVENT   11
 PAGE   1
  // condition: switch 1551 is ON
  PictureDisplay(5,"80_mob_maid1_st01",0,0,0,0,100,100,0,0)
  PictureMove(5,null,0,0,0,0,100,100,255,0,30,true)
  355("actor_label_jump")
  ShowMessageFace("mob_maid1_fc1",0,0,2,1)
  ShowMessage("\\n<Kate (Affection:\\V[3551])>……何か御用でしょうか？")
  JumpToLabel("メニュー")
  DefineLabel("メニュー")
  ShowChoices(strings("Add to party","Never mind"),2)
  IfPlayerPicksChoice(0,null)
   PictureClear(5)
   355("move_actor_ex(551)")
   EndEventProcessing()
   0()
  IfPlayerPicksChoice(1,null)
   PictureClear(5)
   EndEventProcessing()
   0()
  404()
  0()
 PAGE   2
  // condition: party contains actor #551
  0()



EVENT   9
 PAGE   1
  // condition: switch 1545 is ON
  PictureDisplay(5,"80_mob_murabito1_st01",0,0,0,0,100,100,0,0)
  PictureMove(5,null,0,0,0,0,100,100,255,0,30,true)
  355("actor_label_jump")
  ShowMessageFace("mob_murabito1_fc1",0,0,2,1)
  ShowMessage("\\n<Eri (Affection:\\V[3545])>Do you even need me with your strength?")
  JumpToLabel("メニュー")
  DefineLabel("メニュー")
  ShowChoices(strings("Add to party","Never mind"),2)
  IfPlayerPicksChoice(0,null)
   PictureClear(5)
   355("move_actor_ex(545)")
   EndEventProcessing()
   0()
  IfPlayerPicksChoice(1,null)
   PictureClear(5)
   EndEventProcessing()
   0()
  404()
  0()
 PAGE   2
  // condition: party contains actor #545
  0()



EVENT   8
 PAGE   1
  // condition: switch 1544 is ON
  PictureDisplay(5,"80_mob_maid_st01",0,0,0,0,100,100,0,0)
  PictureMove(5,null,0,0,0,0,100,100,255,0,30,true)
  355("actor_label_jump")
  ShowMessageFace("mob_maid_fc1",0,0,2,1)
  ShowMessage("\\n<Marie (Affection:\\V[3544])>You have use for my hands? I don't mean anything strange. Fufufuu.")
  JumpToLabel("メニュー")
  DefineLabel("メニュー")
  ShowChoices(strings("Add to party","Never mind"),2)
  IfPlayerPicksChoice(0,null)
   PictureClear(5)
   355("move_actor_ex(544)")
   EndEventProcessing()
   0()
  IfPlayerPicksChoice(1,null)
   PictureClear(5)
   EndEventProcessing()
   0()
  404()
  0()
 PAGE   2
  // condition: party contains actor #544
  0()



EVENT   10
 PAGE   1
  // condition: switch 1546 is ON
  PictureDisplay(5,"80_mob_hurou_st01",0,0,0,0,100,100,0,0)
  PictureMove(5,null,0,0,0,0,100,100,255,0,30,true)
  355("actor_label_jump")
  ShowMessageFace("mob_hurou_fc1",0,0,2,1)
  ShowMessage("\\n<Stella (Affection:\\V[3546])>このお城に、ずっと住んでいたいな……")
  JumpToLabel("メニュー")
  DefineLabel("メニュー")
  ShowChoices(strings("Add to party","Never mind"),2)
  IfPlayerPicksChoice(0,null)
   PictureClear(5)
   355("move_actor_ex(546)")
   EndEventProcessing()
   0()
  IfPlayerPicksChoice(1,null)
   PictureClear(5)
   EndEventProcessing()
   0()
  404()
  0()
 PAGE   2
  // condition: party contains actor #546
  0()



EVENT   13
 PAGE   1
  // condition: switch 1555 is ON
  PictureDisplay(5,"80_mob_murabito2_st01",0,0,0,0,100,100,0,0)
  PictureMove(5,null,0,0,0,0,100,100,255,0,30,true)
  355("actor_label_jump")
  ShowMessageFace("mob_murabito2_fc1",0,0,2,1)
  ShowMessage("\\n<Teresa (Affection:\\V[3555])>ふわふわ、ふわり……")
  JumpToLabel("メニュー")
  DefineLabel("メニュー")
  ShowChoices(strings("Add to party","Never mind"),2)
  IfPlayerPicksChoice(0,null)
   PictureClear(5)
   355("move_actor_ex(555)")
   EndEventProcessing()
   0()
  IfPlayerPicksChoice(1,null)
   PictureClear(5)
   EndEventProcessing()
   0()
  404()
  0()
 PAGE   2
  // condition: party contains actor #555
  0()



EVENT   12
 PAGE   1
  // condition: switch 1554 is ON
  PictureDisplay(5,"80_mob_nasu1_st01",0,0,0,0,100,100,0,0)
  PictureMove(5,null,0,0,0,0,100,100,255,0,30,true)
  355("actor_label_jump")
  ShowMessageFace("mob_nasu1_fc1",0,0,2,1)
  ShowMessage("\\n<Nightingale (Affection:\\V[3554])>うふふっ、患者さんはいないかしら……？")
  JumpToLabel("メニュー")
  DefineLabel("メニュー")
  ShowChoices(strings("Add to party","Never mind"),2)
  IfPlayerPicksChoice(0,null)
   PictureClear(5)
   355("move_actor_ex(554)")
   EndEventProcessing()
   0()
  IfPlayerPicksChoice(1,null)
   PictureClear(5)
   EndEventProcessing()
   0()
  404()
  0()
 PAGE   2
  // condition: party contains actor #554
  0()



EVENT   14
 PAGE   1
  // condition: switch 1558 is ON
  PictureDisplay(5,"80_mob_uranai1_st01",0,0,0,0,100,100,0,0)
  PictureMove(5,null,0,0,0,0,100,100,255,0,30,true)
  355("actor_label_jump")
  ShowMessageFace("mob_uranai1_fc1",0,0,2,1)
  ShowMessage("\\n<Naia (Affection:\\V[3558])>えっと、占いでしょうか…… それとも、冒険のお供でしょうか……")
  JumpToLabel("メニュー")
  DefineLabel("メニュー")
  ShowChoices(strings("Add to party","Never mind"),2)
  IfPlayerPicksChoice(0,null)
   PictureClear(5)
   355("move_actor_ex(558)")
   EndEventProcessing()
   0()
  IfPlayerPicksChoice(1,null)
   PictureClear(5)
   EndEventProcessing()
   0()
  404()
  0()
 PAGE   2
  // condition: party contains actor #558
  0()